1SNA002;21;100100;1;3;1SNA;DETAIL;100100;2;15
1SNA003;12;100100;1;3;1SNA;DETAIL;100100;2;15
1SNA004;DETAIL;100100;2;3;1SNA;DETAIL;100100;2;15
1SNA005;DETAIL;100100;1;3;1SNA;DETAIL;100100;2;15
1SNA006;1;100100;1;3;1SNA;DETAIL;100100;2;15
1SNA007;1;100100;1;3;1SNA;DETAIL;100100;2;15
1SNA008;2;100100;1;3;1SNA;DETAIL;100100;2;15
1SNA009;1;100100;1;3;1SNA;DETAIL;100100;2;15
1SNA010;eef;100100;1;3;1SNA;DETAIL;100100;2;15
1SNA011;eef;100100;1;3;1SNA;DETAIL;100100;2;15
1SNA012;1;100100;1;3;1SNA;DETAIL;100100;2;15
1SNA013;eef;100100;1;3;1SNA;DETAIL;100100;2;15
1SNA014;eef;100100;1;3;1SNA;DETAIL;100100;2;15
1SNA015;1;100100;1;3;1SNA;DETAIL;100100;2;15
1SNA016;eef;100100;1;3;1SNA;DETAIL;100100;2;15
1SNA017;eef;100100;1;3;1SNA;DETAIL;100100;2;15
1SNA018;eef;100100;1;3;1SNA;DETAIL;100100;2;15
1SNA019;eef;100100;2;3;1SNA;DETAIL;100100;2;15
1SNA020;eef;100100;2;3;1SNA;DETAIL;100100;2;15
1SNA021;eef;100100;2;3;1SNA;DETAIL;100100;2;15
1SNA022;eef;100100;1;3;1SNA;DETAIL;100100;2;15
1SNA023;eef;100100;1;3;1SNA;DETAIL;100100;2;15
1SNA024;eef;100100;1;3;1SNA;DETAIL;100100;2;15
1SNA025;eef;100100;1;3;1SNA;DETAIL;100100;2;15
1SNA026;eef;100100;1;3;1SNA;DETAIL;100100;2;15
1SNA027;eef;100100;1;3;1SNA;DETAIL;100100;2;15
1SNA028;DETAIL;100100;1;3;1SNA;DETAIL;100100;2;15
1SNA029;DETAIL;100100;1;3;1SNA;DETAIL;100100;2;15
1SNA030;DETAIL;100100;1;3;1SNA;DETAIL;100100;2;15
1SNA031;eef;100100;1;3;1SNA;DETAIL;100100;2;15
1SNA032;eef;100100;1;3;1SNA;DETAIL;100100;2;15
1SNA033;eef;100100;1;3;1SNA;DETAIL;100100;2;15
1SNA034;eef;100100;1;3;1SNA;DETAIL;100100;2;15
1SNA035;eef;100100;1;3;1SNA;DETAIL;100100;2;15
1SNA036;eef;100100;1;3;1SNA;DETAIL;100100;2;15
1SNA037;eef;100100;1;3;1SNA;DETAIL;100100;2;15
1SNA038;eef;100100;1;3;1SNA;DETAIL;100100;2;15
1SNA039;eef;100100;1;3;1SNA;DETAIL;100100;2;15
1SNA040;eef;100100;1;3;1SNA;DETAIL;100100;2;15
1SNA041;eef;100100;1;3;1SNA;DETAIL;100100;2;15
1SNA042;eef;100100;1;3;1SNA;DETAIL;100100;2;15
1SNA043;eef;100100;1;3;1SNA;DETAIL;100100;2;15
1SNA044;eef;100100;1;3;1SNA;DETAIL;100100;2;15
1SNA045;eef;100100;1;3;1SNA;DETAIL;100100;2;15
1SNA046;eef;100100;1;3;1SNA;DETAIL;100100;2;15
1SNA047;eef;100100;1;3;1SNA;DETAIL;100100;2;15
1SNA048;eef;100100;1;3;1SNA;DETAIL;100100;2;15
1SNA049;eef;100100;1;3;1SNA;DETAIL;100100;2;15
1SNA050;eef;100100;1;3;1SNA;DETAIL;100100;2;15
1SNA051;eef;100100;1;3;1SNA;DETAIL;100100;2;15
1SNA052;DETAIL;100100;1;3;1SNA;DETAIL;100100;2;15
1SNA053;DETAIL;100100;1;3;1SNA;DETAIL;100100;2;15
1SNA054;DETAIL;100100;1;3;1SNA;DETAIL;100100;2;15
1SNA055;DETAIL;100100;1;3;1SNA;DETAIL;100100;2;15
1SNA056;DETAIL;100100;1;3;1SNA;DETAIL;100100;2;15
1SNA057;DETAIL;100100;1;3;1SNA;DETAIL;100100;2;15
1SNA058;DETAIL;100100;1;3;1SNA;DETAIL;100100;2;15
1SNA059;DETAIL;100100;1;3;1SNA;DETAIL;100100;2;15
1SNA060;DETAIL;100100;1;3;1SNA;DETAIL;100100;2;15
1SNA061;DETAIL;100100;1;3;1SNA;DETAIL;100100;2;15
1SNA062;DETAIL;100100;1;3;1SNA;DETAIL;100100;2;15
1SNA063;DETAIL;100100;1;3;1SNA;DETAIL;100100;2;15
1SNA064;DETAIL;100100;1;3;1SNA;DETAIL;100100;2;15
1SNA065;DETAIL;100100;1;3;1SNA;DETAIL;100100;2;15
1SNA066;DETAIL;100100;1;3;1SNA;DETAIL;100100;2;15
1SNA067;DETAIL;100100;1;3;1SNA;DETAIL;100100;2;15
1SNA068;DETAIL;100100;1;3;1SNA;DETAIL;100100;2;15
1SNA069;DETAIL;100100;1;3;1SNA;DETAIL;100100;2;15
1SNA070;DETAIL;100100;1;3;1SNA;DETAIL;100100;2;15
1SNA071;DETAIL;100100;1;3;1SNA;DETAIL;100100;2;15
1SNA072;DETAIL;100100;1;3;1SNA;DETAIL;100100;2;15
1SNA073;DETAIL;100100;1;3;1SNA;DETAIL;100100;2;15
1SNA074;DETAIL;100100;1;3;1SNA;DETAIL;100100;2;15
1SNA075;DETAIL;100100;1;3;1SNA;DETAIL;100100;2;15
1SNA076;DETAIL;100100;1;3;1SNA;DETAIL;100100;2;15
1SNA077;DETAIL;100100;1;3;1SNA;DETAIL;100100;2;15
1SNA078;DETAIL;100100;1;3;1SNA;DETAIL;100100;2;15
1SNA079;DETAIL;100100;1;3;1SNA;DETAIL;100100;2;15
1SNA080;DETAIL;100100;1;3;1SNA;DETAIL;100100;2;15
1SNA081;DETAIL;100100;1;3;1SNA;DETAIL;100100;2;15
1SNA082;DETAIL;100100;1;3;1SNA;DETAIL;100100;2;15
1SNA083;DETAIL;100100;1;3;1SNA;DETAIL;100100;2;15
1SNA084;DETAIL;100100;1;3;1SNA;DETAIL;100100;2;15
1SNA085;DETAIL;100100;1;3;1SNA;DETAIL;100100;2;15
1SNA086;DETAIL;100100;1;3;1SNA;DETAIL;100100;2;15
1SNA087;DETAIL;100100;1;3;1SNA;DETAIL;100100;2;15
1SNA088;DETAIL;100100;1;3;1SNA;DETAIL;100100;2;15
1SNA089;DETAIL;100100;1;3;1SNA;DETAIL;100100;2;15
1SNA090;DETAIL;100100;1;3;1SNA;DETAIL;100100;2;15
1SNA091;DETAIL;100100;1;3;1SNA;DETAIL;100100;2;15
1SNA092;DETAIL;100100;1;3;1SNA;DETAIL;100100;2;15
1SNA093;DETAIL;100100;1;3;1SNA;DETAIL;100100;2;15
1SNA094;DETAIL;100100;1;3;1SNA;DETAIL;100100;2;15
1SNA095;DETAIL;100100;1;3;1SNA;DETAIL;100100;2;15
1SNA096;DETAIL;100100;1;3;1SNA;DETAIL;100100;2;15
1SNA097;DETAIL;100100;1;3;1SNA;DETAIL;100100;2;15
1SNA098;DETAIL;100100;1;3;1SNA;DETAIL;100100;2;15
1SNA099;DETAIL;100100;1;3;1SNA;DETAIL;100100;2;15
1SNA100;DETAIL;100100;1;3;1SNA;DETAIL;100100;2;15
1SNA101;DETAIL;100100;1;3;1SNA;DETAIL;100100;2;15
1SNA102;DETAIL;100100;1;3;1SNA;DETAIL;100100;2;15
1SNA103;DETAIL;100100;1;3;1SNA;DETAIL;100100;2;15
1SNA104;DETAIL;100100;1;3;1SNA;DETAIL;100100;2;15
1SNA105;DETAIL;100100;1;3;1SNA;DETAIL;100100;2;15
1SNA106;DETAIL;100100;1;3;1SNA;DETAIL;100100;2;15
1SNA107;DETAIL;100100;1;3;1SNA;DETAIL;100100;2;15
1SNA108;DETAIL;100100;1;3;1SNA;DETAIL;100100;2;15
1SNA109;DETAIL;100100;1;3;1SNA;DETAIL;100100;2;15
1SNA110;DETAIL;100100;1;3;1SNA;DETAIL;100100;2;15
1SNA111;DETAIL;100100;1;3;1SNA;DETAIL;100100;2;15
1SNA112;DETAIL;100100;1;3;1SNA;DETAIL;100100;2;15
1SNA113;DETAIL;100100;1;3;1SNA;DETAIL;100100;2;15
1SNA114;DETAIL;100100;1;3;1SNA;DETAIL;100100;2;15
1SNA115;DETAIL;100100;1;3;1SNA;DETAIL;100100;2;15
1SNA116;DETAIL;100100;1;3;1SNA;DETAIL;100100;2;15
1SNA117;DETAIL;100100;1;3;1SNA;DETAIL;100100;2;15
1SNA118;DETAIL;100100;1;3;1SNA;DETAIL;100100;2;15
1SNA119;DETAIL;100100;1;3;1SNA;DETAIL;100100;2;15
1SNA120;DETAIL;100100;1;3;1SNA;DETAIL;100100;2;15
1SNA121;DETAIL;100100;1;3;1SNA;DETAIL;100100;2;15
1SNA122;DETAIL;100100;1;3;1SNA;DETAIL;100100;2;15
1SNA123;DETAIL;100100;1;3;1SNA;DETAIL;100100;2;15
1SNA124;DETAIL;100100;1;3;1SNA;DETAIL;100100;2;15
1SNA125;DETAIL;100100;1;3;1SNA;DETAIL;100100;2;15
1SNA126;DETAIL;100100;1;3;1SNA;DETAIL;100100;2;15
1SNA127;DETAIL;100100;1;3;1SNA;DETAIL;100100;2;15
1SNA128;DETAIL;100100;1;3;1SNA;DETAIL;100100;2;15
1SNA129;DETAIL;100100;1;3;1SNA;DETAIL;100100;2;15
1SNA130;DETAIL;100100;1;3;1SNA;DETAIL;100100;2;15
1SNA131;DETAIL;100100;1;3;1SNA;DETAIL;100100;2;15
1SNA132;DETAIL;100100;1;3;1SNA;DETAIL;100100;2;15
1SNA133;DETAIL;100100;1;3;1SNA;DETAIL;100100;2;15
1SNA134;DETAIL;100100;1;3;1SNA;DETAIL;100100;2;15
1SNA135;DETAIL;100100;1;3;1SNA;DETAIL;100100;2;15
1SNA136;DETAIL;100100;1;3;1SNA;DETAIL;100100;2;15
1SNA137;DETAIL;100100;1;3;1SNA;DETAIL;100100;2;15
1SNA138;DETAIL;100100;1;3;1SNA;DETAIL;100100;2;15
1SNA139;DETAIL;100100;1;3;1SNA;DETAIL;100100;2;15
1SNA140;DETAIL;100100;1;3;1SNA;DETAIL;100100;2;15
1SNA141;DETAIL;100100;1;3;1SNA;DETAIL;100100;2;15
1SNA142;DETAIL;100100;1;3;1SNA;DETAIL;100100;2;15
1SNA143;DETAIL;100100;1;3;1SNA;DETAIL;100100;2;15
1SNA144;DETAIL;100100;1;3;1SNA;DETAIL;100100;2;15
1SNA145;DETAIL;100100;1;3;1SNA;DETAIL;100100;2;15
1SNA146;DETAIL;100100;1;3;1SNA;DETAIL;100100;2;15
1SNA147;DETAIL;100100;1;3;1SNA;DETAIL;100100;2;15
1SNA148;DETAIL;100100;1;3;1SNA;DETAIL;100100;2;15
1SNA149;DETAIL;100100;1;3;1SNA;DETAIL;100100;2;15
1SNA150;DETAIL;100100;1;3;1SNA;DETAIL;100100;2;15
1SNA151;DETAIL;100100;1;3;1SNA;DETAIL;100100;2;15
1SNA152;DETAIL;100100;1;3;1SNA;DETAIL;100100;2;15
1SNA153;DETAIL;100100;1;3;1SNA;DETAIL;100100;2;15
1SNA154;DETAIL;100100;1;3;1SNA;DETAIL;100100;2;15
1SNA155;DETAIL;100100;1;3;1SNA;DETAIL;100100;2;15
1SNA156;DETAIL;100100;1;3;1SNA;DETAIL;100100;2;15
1SNA157;DETAIL;100100;1;3;1SNA;DETAIL;100100;2;15
1SNA158;DETAIL;100100;1;3;1SNA;DETAIL;100100;2;15
1SNA159;DETAIL;100100;1;3;1SNA;DETAIL;100100;2;15
1SNA160;DETAIL;100100;1;3;1SNA;DETAIL;100100;2;15
1SNA161;DETAIL;100100;1;3;1SNA;DETAIL;100100;2;15
1SNA162;DETAIL;100100;1;3;1SNA;DETAIL;100100;2;15
1SNA163;DETAIL;100100;1;3;1SNA;DETAIL;100100;2;15
1SNA164;DETAIL;100100;1;3;1SNA;DETAIL;100100;2;15
1SNA165;DETAIL;100100;1;3;1SNA;DETAIL;100100;2;15
1SNA166;DETAIL;100100;1;3;1SNA;DETAIL;100100;2;15
1SNA167;DETAIL;100100;1;3;1SNA;DETAIL;100100;2;15
1SNA168;DETAIL;100100;1;3;1SNA;DETAIL;100100;2;15
1SNA169;DETAIL;100100;1;3;1SNA;DETAIL;100100;2;15
1SNA170;DETAIL;100100;1;3;1SNA;DETAIL;100100;2;15
1SNA171;DETAIL;100100;1;3;1SNA;DETAIL;100100;2;15
1SNA172;DETAIL;100100;1;3;1SNA;DETAIL;100100;2;15
1SNA173;DETAIL;100100;1;3;1SNA;DETAIL;100100;2;15
1SNA174;DETAIL;100100;1;3;1SNA;DETAIL;100100;2;15
1SNA175;DETAIL;100100;1;3;1SNA;DETAIL;100100;2;15
1SNA176;DETAIL;100100;1;3;1SNA;DETAIL;100100;2;15
1SNA177;DETAIL;100100;1;3;1SNA;DETAIL;100100;2;15
1SNA178;DETAIL;100100;1;3;1SNA;DETAIL;100100;2;15
1SNA179;DETAIL;100100;1;3;1SNA;DETAIL;100100;2;15
1SNA180;DETAIL;100100;1;3;1SNA;DETAIL;100100;2;15
1SNA181;DETAIL;100100;1;3;1SNA;DETAIL;100100;2;15
1SNA182;DETAIL;100100;1;3;1SNA;DETAIL;100100;2;15
1SNA183;DETAIL;100100;1;3;1SNA;DETAIL;100100;2;15
1SNA184;DETAIL;100100;1;3;1SNA;DETAIL;100100;2;15
1SNA185;DETAIL;100100;1;3;1SNA;DETAIL;100100;2;15
1SNA186;DETAIL;100100;1;3;1SNA;DETAIL;100100;2;15
1SNA187;DETAIL;100100;1;3;1SNA;DETAIL;100100;2;15
1SNA188;DETAIL;100100;1;3;1SNA;DETAIL;100100;2;15
1SNA189;DETAIL;100100;1;3;1SNA;DETAIL;100100;2;15
1SNA190;DETAIL;100100;1;3;1SNA;DETAIL;100100;2;15
1SNA191;DETAIL;100100;1;3;1SNA;DETAIL;100100;2;15
1SNA192;DETAIL;100100;1;3;1SNA;DETAIL;100100;2;15
1SNA193;DETAIL;100100;1;3;1SNA;DETAIL;100100;2;15
1SNA194;DETAIL;100100;1;3;1SNA;DETAIL;100100;2;15
1SNA195;DETAIL;100100;1;3;1SNA;DETAIL;100100;2;15
1SNA196;DETAIL;100100;1;3;1SNA;DETAIL;100100;2;15
1SNA197;DETAIL;100100;1;3;1SNA;DETAIL;100100;2;15
1SNA198;DETAIL;100100;1;3;1SNA;DETAIL;100100;2;15
1SNA199;DETAIL;100100;1;3;1SNA;DETAIL;100100;2;15
1SNA200;DETAIL;100100;1;3;1SNA;DETAIL;100100;2;15
1SNA201;DETAIL;100100;1;3;1SNA;DETAIL;100100;2;15
1SNA202;DETAIL;100100;1;3;1SNA;DETAIL;100100;2;15
1SNA203;DETAIL;100100;1;3;1SNA;DETAIL;100100;2;15
1SNA204;DETAIL;100100;1;3;1SNA;DETAIL;100100;2;15
1SNA205;DETAIL;100100;1;3;1SNA;DETAIL;100100;2;15
1SNA206;DETAIL;100100;1;3;1SNA;DETAIL;100100;2;15
1SNA207;DETAIL;100100;1;3;1SNA;DETAIL;100100;2;15
1SNA208;DETAIL;100100;1;3;1SNA;DETAIL;100100;2;15
1SNA209;DETAIL;100100;1;3;1SNA;DETAIL;100100;2;15
1SNA210;DETAIL;100100;1;3;1SNA;DETAIL;100100;2;15
1SNA211;DETAIL;100100;1;3;1SNA;DETAIL;100100;2;15
1SNA212;DETAIL;100100;1;3;1SNA;DETAIL;100100;2;15
1SNA213;DETAIL;100100;1;3;1SNA;DETAIL;100100;2;15
1SNA214;DETAIL;100100;1;3;1SNA;DETAIL;100100;2;15
1SNA215;DETAIL;100100;1;3;1SNA;DETAIL;100100;2;15
1SNA216;DETAIL;100100;1;3;1SNA;DETAIL;100100;2;15
1SNA217;DETAIL;100100;1;3;1SNA;DETAIL;100100;2;15
1SNA218;DETAIL;100100;1;3;1SNA;DETAIL;100100;2;15
1SNA219;DETAIL;100100;1;3;1SNA;DETAIL;100100;2;15
1SNA220;DETAIL;100100;1;3;1SNA;DETAIL;100100;2;15
1SNA221;DETAIL;100100;1;3;1SNA;DETAIL;100100;2;15
1SNA222;DETAIL;100100;1;3;1SNA;DETAIL;100100;2;15
1SNA223;DETAIL;100100;1;3;1SNA;DETAIL;100100;2;15
1SNA224;DETAIL;100100;1;3;1SNA;DETAIL;100100;2;15
1SNA225;DETAIL;100100;1;3;1SNA;DETAIL;100100;2;15
1SNA226;DETAIL;100100;1;3;1SNA;DETAIL;100100;2;15
1SNA227;DETAIL;100100;1;3;1SNA;DETAIL;100100;2;15
1SNA228;DETAIL;100100;1;3;1SNA;DETAIL;100100;2;15
1SNA229;DETAIL;100100;1;3;1SNA;DETAIL;100100;2;15
1SNA230;DETAIL;100100;1;3;1SNA;DETAIL;100100;2;15
1SNA231;DETAIL;100100;1;3;1SNA;DETAIL;100100;2;15
1SNA232;DETAIL;100100;1;3;1SNA;DETAIL;100100;2;15
1SNA233;DETAIL;100100;1;3;1SNA;DETAIL;100100;2;15
1SNA234;DETAIL;100100;1;3;1SNA;DETAIL;100100;2;15
1SNA235;DETAIL;100100;1;3;1SNA;DETAIL;100100;2;15
1SNA236;DETAIL;100100;1;3;1SNA;DETAIL;100100;2;15
1SNA237;DETAIL;100100;1;3;1SNA;DETAIL;100100;2;15
1SNA238;DETAIL;100100;1;3;1SNA;DETAIL;100100;2;15
1SNA239;DETAIL;100100;1;3;1SNA;DETAIL;100100;2;15
1SNA240;DETAIL;100100;1;3;1SNA;DETAIL;100100;2;15
1SNA241;DETAIL;100100;1;3;1SNA;DETAIL;100100;2;15
1SNA242;DETAIL;100100;1;3;1SNA;DETAIL;100100;2;15
1SNA243;DETAIL;100100;1;3;1SNA;DETAIL;100100;2;15
1SNA244;DETAIL;100100;1;3;1SNA;DETAIL;100100;2;15
1SNA245;DETAIL;100100;1;3;1SNA;DETAIL;100100;2;15
1SNA246;DETAIL;100100;1;3;1SNA;DETAIL;100100;2;15
1SNA247;DETAIL;100100;1;3;1SNA;DETAIL;100100;2;15
1SNA248;DETAIL;100100;1;3;1SNA;DETAIL;100100;2;15
1SNA249;DETAIL;100100;1;3;1SNA;DETAIL;100100;2;15
1SNA250;DETAIL;100100;1;3;1SNA;DETAIL;100100;2;15
1SNA251;DETAIL;100100;1;3;1SNA;DETAIL;100100;2;15
1SNA252;DETAIL;100100;1;3;1SNA;DETAIL;100100;2;15
1SNA253;DETAIL;100100;1;3;1SNA;DETAIL;100100;2;15
1SNA254;DETAIL;100100;1;3;1SNA;DETAIL;100100;2;15
1SNA255;DETAIL;100100;1;3;1SNA;DETAIL;100100;2;15
1SNA256;DETAIL;100100;1;3;1SNA;DETAIL;100100;2;15
1SNA257;DETAIL;100100;1;3;1SNA;DETAIL;100100;2;15
1SNA258;DETAIL;100100;1;3;1SNA;DETAIL;100100;2;15
1SNA259;DETAIL;100100;1;3;1SNA;DETAIL;100100;2;15
1SNA260;DETAIL;100100;1;3;1SNA;DETAIL;100100;2;15
1SNA261;DETAIL;100100;1;3;1SNA;DETAIL;100100;2;15
1SNA262;DETAIL;100100;1;3;1SNA;DETAIL;100100;2;15
1SNA263;DETAIL;100100;1;3;1SNA;DETAIL;100100;2;15
1SNA264;DETAIL;100100;1;3;1SNA;DETAIL;100100;2;15
1SNA265;DETAIL;100100;1;3;1SNA;DETAIL;100100;2;15
1SNA266;DETAIL;100100;1;3;1SNA;DETAIL;100100;2;15
1SNA267;DETAIL;100100;1;3;1SNA;DETAIL;100100;2;15
1SNA268;DETAIL;100100;1;3;1SNA;DETAIL;100100;2;15
1SNA269;DETAIL;100100;1;3;1SNA;DETAIL;100100;2;15
1SNA270;DETAIL;100100;1;3;1SNA;DETAIL;100100;2;15
1SNA271;DETAIL;100100;1;3;1SNA;DETAIL;100100;2;15
1SNA272;DETAIL;100100;1;3;1SNA;DETAIL;100100;2;15
1SNA273;DETAIL;100100;1;3;1SNA;DETAIL;100100;2;15
1SNA274;DETAIL;100100;1;3;1SNA;DETAIL;100100;2;15
1SNA275;DETAIL;100100;1;3;1SNA;DETAIL;100100;2;15
1SNA276;DETAIL;100100;1;3;1SNA;DETAIL;100100;2;15
1SNA277;DETAIL;100100;1;3;1SNA;DETAIL;100100;2;15
1SNA278;DETAIL;100100;1;3;1SNA;DETAIL;100100;2;15
1SNA279;DETAIL;100100;1;3;1SNA;DETAIL;100100;2;15
1SNA280;DETAIL;100100;1;3;1SNA;DETAIL;100100;2;15
1SNA281;DETAIL;100100;1;3;1SNA;DETAIL;100100;2;15
1SNA282;DETAIL;100100;1;3;1SNA;DETAIL;100100;2;15
1SNA283;DETAIL;100100;1;3;1SNA;DETAIL;100100;2;15
1SNA284;DETAIL;100100;1;3;1SNA;DETAIL;100100;2;15
1SNA285;DETAIL;100100;1;3;1SNA;DETAIL;100100;2;15
1SNA286;DETAIL;100100;1;3;1SNA;DETAIL;100100;2;15
1SNA287;DETAIL;100100;1;3;1SNA;DETAIL;100100;2;15
1SNA288;DETAIL;100100;1;3;1SNA;DETAIL;100100;2;15
1SNA289;DETAIL;100100;1;3;1SNA;DETAIL;100100;2;15
1SNA290;DETAIL;100100;1;3;1SNA;DETAIL;100100;2;15
1SNA291;DETAIL;100100;1;3;1SNA;DETAIL;100100;2;15
1SNA292;DETAIL;100100;1;3;1SNA;DETAIL;100100;2;15
1SNA293;DETAIL;100100;1;3;1SNA;DETAIL;100100;2;15
1SNA294;DETAIL;100100;1;3;1SNA;DETAIL;100100;2;15
1SNA295;DETAIL;100100;1;3;1SNA;DETAIL;100100;2;15
1SNA296;DETAIL;100100;1;3;1SNA;DETAIL;100100;2;15
1SNA297;DETAIL;100100;1;3;1SNA;DETAIL;100100;2;15
1SNA298;DETAIL;100100;1;3;1SNA;DETAIL;100100;2;15
1SNA299;DETAIL;100100;1;3;1SNA;DETAIL;100100;2;15
1SNA300;DETAIL;100100;1;3;1SNA;DETAIL;100100;2;15
1SNA301;DETAIL;100100;1;3;1SNA;DETAIL;100100;2;15
1SNA302;DETAIL;100100;1;3;1SNA;DETAIL;100100;2;15
1SNA303;DETAIL;100100;1;3;1SNA;DETAIL;100100;2;15
1SNA304;DETAIL;100100;1;3;1SNA;DETAIL;100100;2;15
1SNA305;DETAIL;100100;1;3;1SNA;DETAIL;100100;2;15
1SNA306;DETAIL;100100;1;3;1SNA;DETAIL;100100;2;15
1SNA307;DETAIL;100100;1;3;1SNA;DETAIL;100100;2;15
1SNA308;DETAIL;100100;1;3;1SNA;DETAIL;100100;2;15
1SNA309;DETAIL;100100;1;3;1SNA;DETAIL;100100;2;15
1SNA310;DETAIL;100100;1;3;1SNA;DETAIL;100100;2;15
1SNA311;DETAIL;100100;1;3;1SNA;DETAIL;100100;2;15
1SNA312;DETAIL;100100;1;3;1SNA;DETAIL;100100;2;15
1SNA313;DETAIL;100100;1;3;1SNA;DETAIL;100100;2;15
1SNA314;DETAIL;100100;1;3;1SNA;DETAIL;100100;2;15
1SNA315;DETAIL;100100;1;3;1SNA;DETAIL;100100;2;15
1SNA316;DETAIL;100100;1;3;1SNA;DETAIL;100100;2;15
1SNA317;DETAIL;100100;1;3;1SNA;DETAIL;100100;2;15
1SNA318;DETAIL;100100;1;3;1SNA;DETAIL;100100;2;15
1SNA319;DETAIL;100100;1;3;1SNA;DETAIL;100100;2;15
1SNA320;DETAIL;100100;1;3;1SNA;DETAIL;100100;2;15
1SNA321;DETAIL;100100;1;3;1SNA;DETAIL;100100;2;15
1SNA322;DETAIL;100100;1;3;1SNA;DETAIL;100100;2;15
1SNA323;DETAIL;100100;1;3;1SNA;DETAIL;100100;2;15
1SNA324;DETAIL;100100;1;3;1SNA;DETAIL;100100;2;15
1SNA325;DETAIL;100100;1;3;1SNA;DETAIL;100100;2;15
1SNA326;DETAIL;100100;1;3;1SNA;DETAIL;100100;2;15
1SNA327;DETAIL;100100;1;3;1SNA;DETAIL;100100;2;15
1SNA328;DETAIL;100100;1;3;1SNA;DETAIL;100100;2;15
1SNA329;DETAIL;100100;1;3;1SNA;DETAIL;100100;2;15
1SNA330;DETAIL;100100;1;3;1SNA;DETAIL;100100;2;15
1SNA331;DETAIL;100100;1;3;1SNA;DETAIL;100100;2;15
1SNA332;DETAIL;100100;1;3;1SNA;DETAIL;100100;2;15
1SNA333;DETAIL;100100;1;3;1SNA;DETAIL;100100;2;15
1SNA334;DETAIL;100100;1;3;1SNA;DETAIL;100100;2;15
1SNA335;DETAIL;100100;1;3;1SNA;DETAIL;100100;2;15
1SNA336;DETAIL;100100;1;3;1SNA;DETAIL;100100;2;15
1SNA337;DETAIL;100100;1;3;1SNA;DETAIL;100100;2;15
1SNA338;DETAIL;100100;1;3;1SNA;DETAIL;100100;2;15
1SNA339;DETAIL;100100;1;3;1SNA;DETAIL;100100;2;15
1SNA340;DETAIL;100100;1;3;1SNA;DETAIL;100100;2;15
1SNA341;DETAIL;100100;1;3;1SNA;DETAIL;100100;2;15
1SNA342;DETAIL;100100;1;3;1SNA;DETAIL;100100;2;15
1SNA343;DETAIL;100100;1;3;1SNA;DETAIL;100100;2;15
1SNA344;DETAIL;100100;1;3;1SNA;DETAIL;100100;2;15
1SNA345;DETAIL;100100;1;3;1SNA;DETAIL;100100;2;15
1SNA346;DETAIL;100100;1;3;1SNA;DETAIL;100100;2;15
1SNA347;DETAIL;100100;1;3;1SNA;DETAIL;100100;2;15
1SNA348;DETAIL;100100;1;3;1SNA;DETAIL;100100;2;15
1SNA349;DETAIL;100100;1;3;1SNA;DETAIL;100100;2;15
1SNA350;DETAIL;100100;1;3;1SNA;DETAIL;100100;2;15
1SNA351;DETAIL;100100;1;3;1SNA;DETAIL;100100;2;15
1SNA352;DETAIL;100100;1;3;1SNA;DETAIL;100100;2;15
1SNA353;DETAIL;100100;1;3;1SNA;DETAIL;100100;2;15
1SNA354;DETAIL;100100;1;3;1SNA;DETAIL;100100;2;15
1SNA355;DETAIL;100100;1;3;1SNA;DETAIL;100100;2;15
1SNA356;DETAIL;100100;1;3;1SNA;DETAIL;100100;2;15
1SNA357;DETAIL;100100;1;3;1SNA;DETAIL;100100;2;15
1SNA358;DETAIL;100100;1;3;1SNA;DETAIL;100100;2;15
1SNA359;DETAIL;100100;1;3;1SNA;DETAIL;100100;2;15
1SNA360;DETAIL;100100;1;3;1SNA;DETAIL;100100;2;15
1SNA361;DETAIL;100100;1;3;1SNA;DETAIL;100100;2;15
1SNA362;DETAIL;100100;1;3;1SNA;DETAIL;100100;2;15
1SNA363;DETAIL;100100;1;3;1SNA;DETAIL;100100;2;15
1SNA364;DETAIL;100100;1;3;1SNA;DETAIL;100100;2;15
1SNA365;DETAIL;100100;1;3;1SNA;DETAIL;100100;2;15
1SNA366;DETAIL;100100;1;3;1SNA;DETAIL;100100;2;15
1SNA367;DETAIL;100100;1;3;1SNA;DETAIL;100100;2;15
1SNA368;DETAIL;100100;1;3;1SNA;DETAIL;100100;2;15
1SNA369;DETAIL;100100;1;3;1SNA;DETAIL;100100;2;15
1SNA370;DETAIL;100100;1;3;1SNA;DETAIL;100100;2;15
1SNA371;DETAIL;100100;1;3;1SNA;DETAIL;100100;2;15
1SNA372;DETAIL;100100;1;3;1SNA;DETAIL;100100;2;15
1SNA373;DETAIL;100100;1;3;1SNA;DETAIL;100100;2;15
1SNA374;DETAIL;100100;1;3;1SNA;DETAIL;100100;2;15
1SNA375;DETAIL;100100;1;3;1SNA;DETAIL;100100;2;15
1SNA376;DETAIL;100100;1;3;1SNA;DETAIL;100100;2;15
1SNA377;DETAIL;100100;1;3;1SNA;DETAIL;100100;2;15
1SNA378;DETAIL;100100;1;3;1SNA;DETAIL;100100;2;15
1SNA379;DETAIL;100100;1;3;1SNA;DETAIL;100100;2;15
1SNA380;DETAIL;100100;1;3;1SNA;DETAIL;100100;2;15
1SNA381;DETAIL;100100;1;3;1SNA;DETAIL;100100;2;15
1SNA382;DETAIL;100100;1;3;1SNA;DETAIL;100100;2;15
1SNA383;DETAIL;100100;1;3;1SNA;DETAIL;100100;2;15
1SNA384;DETAIL;100100;1;3;1SNA;DETAIL;100100;2;15
1SNA385;DETAIL;100100;1;3;1SNA;DETAIL;100100;2;15
1SNA386;DETAIL;100100;1;3;1SNA;DETAIL;100100;2;15
1SNA387;DETAIL;100100;1;3;1SNA;DETAIL;100100;2;15
1SNA388;DETAIL;100100;1;3;1SNA;DETAIL;100100;2;15
1SNA389;DETAIL;100100;1;3;1SNA;DETAIL;100100;2;15
1SNA390;DETAIL;100100;1;3;1SNA;DETAIL;100100;2;15
1SNA391;DETAIL;100100;1;3;1SNA;DETAIL;100100;2;15
1SNA392;DETAIL;100100;1;3;1SNA;DETAIL;100100;2;15
1SNA393;DETAIL;100100;1;3;1SNA;DETAIL;100100;2;15
1SNA394;DETAIL;100100;1;3;1SNA;DETAIL;100100;2;15
1SNA395;DETAIL;100100;1;3;1SNA;DETAIL;100100;2;15
1SNA396;DETAIL;100100;1;3;1SNA;DETAIL;100100;2;15
1SNA397;DETAIL;100100;1;3;1SNA;DETAIL;100100;2;15
1SNA398;DETAIL;100100;1;3;1SNA;DETAIL;100100;2;15
1SNA399;DETAIL;100100;1;3;1SNA;DETAIL;100100;2;15
1SNA400;DETAIL;100100;1;3;1SNA;DETAIL;100100;2;15
1SNA401;DETAIL;100100;1;3;1SNA;DETAIL;100100;2;15
1SNA402;DETAIL;100100;1;3;1SNA;DETAIL;100100;2;15
1SNA403;DETAIL;100100;1;3;1SNA;DETAIL;100100;2;15
1SNA404;DETAIL;100100;1;3;1SNA;DETAIL;100100;2;15
1SNA405;DETAIL;100100;1;3;1SNA;DETAIL;100100;2;15
1SNA406;DETAIL;100100;1;3;1SNA;DETAIL;100100;2;15
1SNA407;DETAIL;100100;1;3;1SNA;DETAIL;100100;2;15
1SNA408;DETAIL;100100;1;3;1SNA;DETAIL;100100;2;15
1SNA409;DETAIL;100100;1;3;1SNA;DETAIL;100100;2;15
1SNA410;DETAIL;100100;1;3;1SNA;DETAIL;100100;2;15
1SNA411;DETAIL;100100;1;3;1SNA;DETAIL;100100;2;15
1SNA412;DETAIL;100100;1;3;1SNA;DETAIL;100100;2;15
1SNA413;DETAIL;100100;1;3;1SNA;DETAIL;100100;2;15
1SNA414;DETAIL;100100;1;3;1SNA;DETAIL;100100;2;15
1SNA415;DETAIL;100100;1;3;1SNA;DETAIL;100100;2;15
1SNA416;DETAIL;100100;1;3;1SNA;DETAIL;100100;2;15
1SNA417;DETAIL;100100;1;3;1SNA;DETAIL;100100;2;15
1SNA418;DETAIL;100100;1;3;1SNA;DETAIL;100100;2;15
1SNA419;DETAIL;100100;1;3;1SNA;DETAIL;100100;2;15
1SNA420;DETAIL;100100;1;3;1SNA;DETAIL;100100;2;15
1SNA421;DETAIL;100100;1;3;1SNA;DETAIL;100100;2;15
1SNA422;DETAIL;100100;1;3;1SNA;DETAIL;100100;2;15
1SNA423;DETAIL;100100;1;3;1SNA;DETAIL;100100;2;15
1SNA424;DETAIL;100100;1;3;1SNA;DETAIL;100100;2;15
1SNA425;DETAIL;100100;1;3;1SNA;DETAIL;100100;2;15
1SNA426;DETAIL;100100;1;3;1SNA;DETAIL;100100;2;15
1SNA427;DETAIL;100100;1;3;1SNA;DETAIL;100100;2;15
1SNA428;DETAIL;100100;1;3;1SNA;DETAIL;100100;2;15
1SNA429;DETAIL;100100;1;3;1SNA;DETAIL;100100;2;15
1SNA430;DETAIL;100100;1;3;1SNA;DETAIL;100100;2;15
1SNA431;DETAIL;100100;1;3;1SNA;DETAIL;100100;2;15
1SNA432;DETAIL;100100;1;3;1SNA;DETAIL;100100;2;15
1SNA433;DETAIL;100100;1;3;1SNA;DETAIL;100100;2;15
1SNA434;DETAIL;100100;1;3;1SNA;DETAIL;100100;2;15
1SNA435;DETAIL;100100;1;3;1SNA;DETAIL;100100;2;15
1SNA436;DETAIL;100100;1;3;1SNA;DETAIL;100100;2;15
1SNA437;DETAIL;100100;1;3;1SNA;DETAIL;100100;2;15
1SNA438;DETAIL;100100;1;3;1SNA;DETAIL;100100;2;15
1SNA439;DETAIL;100100;1;3;1SNA;DETAIL;100100;2;15
1SNA440;DETAIL;100100;1;3;1SNA;DETAIL;100100;2;15
1SNA441;DETAIL;100100;1;3;1SNA;DETAIL;100100;2;15
1SNA442;DETAIL;100100;1;3;1SNA;DETAIL;100100;2;15
1SNA443;DETAIL;100100;1;3;1SNA;DETAIL;100100;2;15
1SNA444;DETAIL;100100;1;3;1SNA;DETAIL;100100;2;15
1SNA445;DETAIL;100100;1;3;1SNA;DETAIL;100100;2;15
1SNA446;DETAIL;100100;1;3;1SNA;DETAIL;100100;2;15
1SNA447;DETAIL;100100;1;3;1SNA;DETAIL;100100;2;15
1SNA448;DETAIL;100100;1;3;1SNA;DETAIL;100100;2;15
1SNA449;DETAIL;100100;1;3;1SNA;DETAIL;100100;2;15
1SNA450;DETAIL;100100;1;3;1SNA;DETAIL;100100;2;15
1SNA451;DETAIL;100100;1;3;1SNA;DETAIL;100100;2;15
1SNA452;DETAIL;100100;1;3;1SNA;DETAIL;100100;2;15
1SNA453;DETAIL;100100;1;3;1SNA;DETAIL;100100;2;15
1SNA454;DETAIL;100100;1;3;1SNA;DETAIL;100100;2;15
1SNA455;DETAIL;100100;1;3;1SNA;DETAIL;100100;2;15
1SNA456;DETAIL;100100;1;3;1SNA;DETAIL;100100;2;15
1SNA457;DETAIL;100100;1;3;1SNA;DETAIL;100100;2;15
1SNA458;DETAIL;100100;1;3;1SNA;DETAIL;100100;2;15
1SNA459;DETAIL;100100;1;3;1SNA;DETAIL;100100;2;15
1SNA460;DETAIL;100100;1;3;1SNA;DETAIL;100100;2;15
1SNA461;DETAIL;100100;1;3;1SNA;DETAIL;100100;2;15
1SNA462;DETAIL;100100;1;3;1SNA;DETAIL;100100;2;15
1SNA463;DETAIL;100100;1;3;1SNA;DETAIL;100100;2;15
1SNA464;DETAIL;100100;1;3;1SNA;DETAIL;100100;2;15
1SNA465;DETAIL;100100;1;3;1SNA;DETAIL;100100;2;15
1SNA466;DETAIL;100100;1;3;1SNA;DETAIL;100100;2;15
1SNA467;DETAIL;100100;1;3;1SNA;DETAIL;100100;2;15
1SNA468;DETAIL;100100;1;3;1SNA;DETAIL;100100;2;15
1SNA469;DETAIL;100100;1;3;1SNA;DETAIL;100100;2;15
1SNA470;DETAIL;100100;1;3;1SNA;DETAIL;100100;2;15
1SNA471;DETAIL;100100;1;3;1SNA;DETAIL;100100;2;15
1SNA472;DETAIL;100100;1;3;1SNA;DETAIL;100100;2;15
1SNA473;DETAIL;100100;1;3;1SNA;DETAIL;100100;2;15
1SNA474;DETAIL;100100;1;3;1SNA;DETAIL;100100;2;15
1SNA475;DETAIL;100100;1;3;1SNA;DETAIL;100100;2;15
1SNA476;DETAIL;100100;1;3;1SNA;DETAIL;100100;2;15
1SNA477;DETAIL;100100;1;3;1SNA;DETAIL;100100;2;15
1SNA478;DETAIL;100100;1;3;1SNA;DETAIL;100100;2;15
1SNA479;DETAIL;100100;1;3;1SNA;DETAIL;100100;2;15
1SNA480;DETAIL;100100;1;3;1SNA;DETAIL;100100;2;15
1SNA481;DETAIL;100100;1;3;1SNA;DETAIL;100100;2;15
1SNA482;DETAIL;100100;1;3;1SNA;DETAIL;100100;2;15
1SNA483;DETAIL;100100;1;3;1SNA;DETAIL;100100;2;15
1SNA484;DETAIL;100100;1;3;1SNA;DETAIL;100100;2;15
1SNA485;DETAIL;100100;1;3;1SNA;DETAIL;100100;2;15
1SNA486;DETAIL;100100;1;3;1SNA;DETAIL;100100;2;15
1SNA487;DETAIL;100100;1;3;1SNA;DETAIL;100100;2;15
1SNA488;DETAIL;100100;1;3;1SNA;DETAIL;100100;2;15
1SNA489;DETAIL;100100;1;3;1SNA;DETAIL;100100;2;15
1SNA490;DETAIL;100100;1;3;1SNA;DETAIL;100100;2;15
1SNA491;DETAIL;100100;1;3;1SNA;DETAIL;100100;2;15
1SNA492;DETAIL;100100;1;3;1SNA;DETAIL;100100;2;15
1SNA493;DETAIL;100100;1;3;1SNA;DETAIL;100100;2;15
1SNA494;DETAIL;100100;1;3;1SNA;DETAIL;100100;2;15
1SNA495;DETAIL;100100;1;3;1SNA;DETAIL;100100;2;15
1SNA496;DETAIL;100100;1;3;1SNA;DETAIL;100100;2;15
1SNA497;DETAIL;100100;1;3;1SNA;DETAIL;100100;2;15
1SNA498;DETAIL;100100;1;3;1SNA;DETAIL;100100;2;15
1SNA499;DETAIL;100100;1;3;1SNA;DETAIL;100100;2;15
1SNA500;DETAIL;100100;1;3;1SNA;DETAIL;100100;2;15
1SNA501;DETAIL;100100;1;3;1SNA;DETAIL;100100;2;15
1SNA502;DETAIL;100100;1;3;1SNA;DETAIL;100100;2;15
1SNA503;DETAIL;100100;1;3;1SNA;DETAIL;100100;2;15
1SNA504;DETAIL;100100;1;3;1SNA;DETAIL;100100;2;15
1SNA505;DETAIL;100100;1;3;1SNA;DETAIL;100100;2;15
1SNA506;DETAIL;100100;1;3;1SNA;DETAIL;100100;2;15
1SNA507;DETAIL;100100;1;3;1SNA;DETAIL;100100;2;15
1SNA508;DETAIL;100100;1;3;1SNA;DETAIL;100100;2;15
1SNA509;DETAIL;100100;1;3;1SNA;DETAIL;100100;2;15
1SNA510;DETAIL;100100;1;3;1SNA;DETAIL;100100;2;15
1SNA511;DETAIL;100100;1;3;1SNA;DETAIL;100100;2;15
1SNA512;DETAIL;100100;1;3;1SNA;DETAIL;100100;2;15
1SNA513;DETAIL;100100;1;3;1SNA;DETAIL;100100;2;15
1SNA514;DETAIL;100100;1;3;1SNA;DETAIL;100100;2;15
1SNA515;DETAIL;100100;1;3;1SNA;DETAIL;100100;2;15
1SNA516;DETAIL;100100;1;3;1SNA;DETAIL;100100;2;15
1SNA517;DETAIL;100100;1;3;1SNA;DETAIL;100100;2;15
1SNA518;DETAIL;100100;1;3;1SNA;DETAIL;100100;2;15
1SNA519;DETAIL;100100;1;3;1SNA;DETAIL;100100;2;15
1SNA520;DETAIL;100100;1;3;1SNA;DETAIL;100100;2;15
1SNA521;DETAIL;100100;1;3;1SNA;DETAIL;100100;2;15
1SNA522;DETAIL;100100;1;3;1SNA;DETAIL;100100;2;15
1SNA523;DETAIL;100100;1;3;1SNA;DETAIL;100100;2;15
1SNA524;DETAIL;100100;1;3;1SNA;DETAIL;100100;2;15
1SNA525;DETAIL;100100;1;3;1SNA;DETAIL;100100;2;15
1SNA526;DETAIL;100100;1;3;1SNA;DETAIL;100100;2;15
1SNA527;DETAIL;100100;1;3;1SNA;DETAIL;100100;2;15
1SNA528;DETAIL;100100;1;3;1SNA;DETAIL;100100;2;15
1SNA529;DETAIL;100100;1;3;1SNA;DETAIL;100100;2;15
1SNA530;DETAIL;100100;1;3;1SNA;DETAIL;100100;2;15
1SNA531;DETAIL;100100;1;3;1SNA;DETAIL;100100;2;15
1SNA532;DETAIL;100100;1;3;1SNA;DETAIL;100100;2;15
1SNA533;DETAIL;100100;1;3;1SNA;DETAIL;100100;2;15
1SNA534;DETAIL;100100;1;3;1SNA;DETAIL;100100;2;15
1SNA535;DETAIL;100100;1;3;1SNA;DETAIL;100100;2;15
1SNA536;DETAIL;100100;1;3;1SNA;DETAIL;100100;2;15
1SNA537;DETAIL;100100;1;3;1SNA;DETAIL;100100;2;15
1SNA538;DETAIL;100100;1;3;1SNA;DETAIL;100100;2;15
1SNA539;DETAIL;100100;1;3;1SNA;DETAIL;100100;2;15
1SNA540;DETAIL;100100;1;3;1SNA;DETAIL;100100;2;15
1SNA541;DETAIL;100100;1;3;1SNA;DETAIL;100100;2;15
1SNA542;DETAIL;100100;1;3;1SNA;DETAIL;100100;2;15
1SNA543;DETAIL;100100;1;3;1SNA;DETAIL;100100;2;15
1SNA544;DETAIL;100100;1;3;1SNA;DETAIL;100100;2;15
1SNA545;DETAIL;100100;1;3;1SNA;DETAIL;100100;2;15
1SNA546;DETAIL;100100;1;3;1SNA;DETAIL;100100;2;15
1SNA547;DETAIL;100100;1;3;1SNA;DETAIL;100100;2;15
1SNA548;DETAIL;100100;1;3;1SNA;DETAIL;100100;2;15
1SNA549;DETAIL;100100;1;3;1SNA;DETAIL;100100;2;15
1SNA550;DETAIL;100100;1;3;1SNA;DETAIL;100100;2;15
1SNA551;DETAIL;100100;1;3;1SNA;DETAIL;100100;2;15
1SNA552;DETAIL;100100;1;3;1SNA;DETAIL;100100;2;15
1SNA553;DETAIL;100100;1;3;1SNA;DETAIL;100100;2;15
1SNA554;DETAIL;100100;1;3;1SNA;DETAIL;100100;2;15
1SNA555;DETAIL;100100;1;3;1SNA;DETAIL;100100;2;15
1SNA556;DETAIL;100100;1;3;1SNA;DETAIL;100100;2;15
1SNA557;DETAIL;100100;1;3;1SNA;DETAIL;100100;2;15
1SNA558;DETAIL;100100;1;3;1SNA;DETAIL;100100;2;15
1SNA559;DETAIL;100100;1;3;1SNA;DETAIL;100100;2;15
1SNA560;DETAIL;100100;1;3;1SNA;DETAIL;100100;2;15
1SNA561;DETAIL;100100;1;3;1SNA;DETAIL;100100;2;15
1SNA562;DETAIL;100100;1;3;1SNA;DETAIL;100100;2;15
1SNA563;DETAIL;100100;1;3;1SNA;DETAIL;100100;2;15
1SNA564;DETAIL;100100;1;3;1SNA;DETAIL;100100;2;15
1SNA565;DETAIL;100100;1;3;1SNA;DETAIL;100100;2;15
1SNA566;DETAIL;100100;1;3;1SNA;DETAIL;100100;2;15
1SNA567;DETAIL;100100;1;3;1SNA;DETAIL;100100;2;15
1SNA568;DETAIL;100100;1;3;1SNA;DETAIL;100100;2;15
1SNA569;DETAIL;100100;1;3;1SNA;DETAIL;100100;2;15
1SNA570;DETAIL;100100;1;3;1SNA;DETAIL;100100;2;15
1SNA571;DETAIL;100100;1;3;1SNA;DETAIL;100100;2;15
1SNA572;DETAIL;100100;1;3;1SNA;DETAIL;100100;2;15
1SNA573;DETAIL;100100;1;3;1SNA;DETAIL;100100;2;15
1SNA574;DETAIL;100100;1;3;1SNA;DETAIL;100100;2;15
1SNA575;DETAIL;100100;1;3;1SNA;DETAIL;100100;2;15
1SNA576;DETAIL;100100;1;3;1SNA;DETAIL;100100;2;15
1SNA577;DETAIL;100100;1;3;1SNA;DETAIL;100100;2;15
1SNA578;DETAIL;100100;1;3;1SNA;DETAIL;100100;2;15
1SNA579;DETAIL;100100;1;3;1SNA;DETAIL;100100;2;15
1SNA580;DETAIL;100100;1;3;1SNA;DETAIL;100100;2;15
1SNA581;DETAIL;100100;1;3;1SNA;DETAIL;100100;2;15
1SNA582;DETAIL;100100;1;3;1SNA;DETAIL;100100;2;15
1SNA583;DETAIL;100100;1;3;1SNA;DETAIL;100100;2;15
1SNA584;DETAIL;100100;1;3;1SNA;DETAIL;100100;2;15
1SNA585;DETAIL;100100;1;3;1SNA;DETAIL;100100;2;15
1SNA586;DETAIL;100100;1;3;1SNA;DETAIL;100100;2;15
1SNA587;DETAIL;100100;1;3;1SNA;DETAIL;100100;2;15
1SNA588;DETAIL;100100;1;3;1SNA;DETAIL;100100;2;15
1SNA589;DETAIL;100100;1;3;1SNA;DETAIL;100100;2;15
1SNA590;DETAIL;100100;1;3;1SNA;DETAIL;100100;2;15
1SNA591;DETAIL;100100;1;3;1SNA;DETAIL;100100;2;15
1SNA592;DETAIL;100100;1;3;1SNA;DETAIL;100100;2;15
1SNA593;DETAIL;100100;1;3;1SNA;DETAIL;100100;2;15
1SNA594;DETAIL;100100;1;3;1SNA;DETAIL;100100;2;15
1SNA595;DETAIL;100100;1;3;1SNA;DETAIL;100100;2;15
1SNA596;DETAIL;100100;1;3;1SNA;DETAIL;100100;2;15
1SNA597;DETAIL;100100;1;3;1SNA;DETAIL;100100;2;15
1SNA598;DETAIL;100100;1;3;1SNA;DETAIL;100100;2;15
1SNA599;DETAIL;100100;1;3;1SNA;DETAIL;100100;2;15
1SNA600;DETAIL;100100;1;3;1SNA;DETAIL;100100;2;15
1SNA601;DETAIL;100100;1;3;1SNA;DETAIL;100100;2;15
1SNA602;DETAIL;100100;1;3;1SNA;DETAIL;100100;2;15
1SNA603;DETAIL;100100;1;3;1SNA;DETAIL;100100;2;15
1SNA604;DETAIL;100100;1;3;1SNA;DETAIL;100100;2;15
1SNA605;DETAIL;100100;1;3;1SNA;DETAIL;100100;2;15
1SNA606;DETAIL;100100;1;3;1SNA;DETAIL;100100;2;15
1SNA607;DETAIL;100100;1;3;1SNA;DETAIL;100100;2;15
1SNA608;DETAIL;100100;1;3;1SNA;DETAIL;100100;2;15
1SNA609;DETAIL;100100;1;3;1SNA;DETAIL;100100;2;15
1SNA610;DETAIL;100100;1;3;1SNA;DETAIL;100100;2;15
1SNA611;DETAIL;100100;1;3;1SNA;DETAIL;100100;2;15
1SNA612;DETAIL;100100;1;3;1SNA;DETAIL;100100;2;15
1SNA613;DETAIL;100100;1;3;1SNA;DETAIL;100100;2;15
1SNA614;DETAIL;100100;1;3;1SNA;DETAIL;100100;2;15
1SNA615;DETAIL;100100;1;3;1SNA;DETAIL;100100;2;15
1SNA616;DETAIL;100100;1;3;1SNA;DETAIL;100100;2;15
1SNA617;DETAIL;100100;1;3;1SNA;DETAIL;100100;2;15
1SNA618;DETAIL;100100;1;3;1SNA;DETAIL;100100;2;15
1SNA619;DETAIL;100100;1;3;1SNA;DETAIL;100100;2;15
1SNA620;DETAIL;100100;1;3;1SNA;DETAIL;100100;2;15
1SNA621;DETAIL;100100;1;3;1SNA;DETAIL;100100;2;15
1SNA622;DETAIL;100100;1;3;1SNA;DETAIL;100100;2;15
1SNA623;DETAIL;100100;1;3;1SNA;DETAIL;100100;2;15
1SNA624;DETAIL;100100;1;3;1SNA;DETAIL;100100;2;15
1SNA625;DETAIL;100100;1;3;1SNA;DETAIL;100100;2;15
1SNA626;DETAIL;100100;1;3;1SNA;DETAIL;100100;2;15
1SNA627;DETAIL;100100;1;3;1SNA;DETAIL;100100;2;15
1SNA628;DETAIL;100100;1;3;1SNA;DETAIL;100100;2;15
1SNA629;DETAIL;100100;1;3;1SNA;DETAIL;100100;2;15
1SNA630;DETAIL;100100;1;3;1SNA;DETAIL;100100;2;15
1SNA631;DETAIL;100100;1;3;1SNA;DETAIL;100100;2;15
1SNA632;DETAIL;100100;1;3;1SNA;DETAIL;100100;2;15
1SNA633;DETAIL;100100;1;3;1SNA;DETAIL;100100;2;15
1SNA634;DETAIL;100100;1;3;1SNA;DETAIL;100100;2;15
1SNA635;DETAIL;100100;1;3;1SNA;DETAIL;100100;2;15
1SNA636;DETAIL;100100;1;3;1SNA;DETAIL;100100;2;15
1SNA637;DETAIL;100100;1;3;1SNA;DETAIL;100100;2;15
1SNA638;DETAIL;100100;1;3;1SNA;DETAIL;100100;2;15
1SNA639;DETAIL;100100;1;3;1SNA;DETAIL;100100;2;15
1SNA640;DETAIL;100100;1;3;1SNA;DETAIL;100100;2;15
1SNA641;DETAIL;100100;1;3;1SNA;DETAIL;100100;2;15
1SNA642;DETAIL;100100;1;3;1SNA;DETAIL;100100;2;15
1SNA643;DETAIL;100100;1;3;1SNA;DETAIL;100100;2;15
1SNA644;DETAIL;100100;1;3;1SNA;DETAIL;100100;2;15
1SNA645;DETAIL;100100;1;3;1SNA;DETAIL;100100;2;15
1SNA646;DETAIL;100100;1;3;1SNA;DETAIL;100100;2;15
1SNA647;DETAIL;100100;1;3;1SNA;DETAIL;100100;2;15
1SNA648;DETAIL;100100;1;3;1SNA;DETAIL;100100;2;15
1SNA649;DETAIL;100100;1;3;1SNA;DETAIL;100100;2;15
1SNA650;DETAIL;100100;1;3;1SNA;DETAIL;100100;2;15
1SNA651;DETAIL;100100;1;3;1SNA;DETAIL;100100;2;15
1SNA652;DETAIL;100100;1;3;1SNA;DETAIL;100100;2;15
1SNA653;DETAIL;100100;1;3;1SNA;DETAIL;100100;2;15
1SNA654;DETAIL;100100;1;3;1SNA;DETAIL;100100;2;15
1SNA655;DETAIL;100100;1;3;1SNA;DETAIL;100100;2;15
1SNA656;DETAIL;100100;1;3;1SNA;DETAIL;100100;2;15
1SNA657;DETAIL;100100;1;3;1SNA;DETAIL;100100;2;15
1SNA658;DETAIL;100100;1;3;1SNA;DETAIL;100100;2;15
1SNA659;DETAIL;100100;1;3;1SNA;DETAIL;100100;2;15
1SNA660;DETAIL;100100;1;3;1SNA;DETAIL;100100;2;15
1SNA661;DETAIL;100100;1;3;1SNA;DETAIL;100100;2;15
1SNA662;DETAIL;100100;1;3;1SNA;DETAIL;100100;2;15
1SNA663;DETAIL;100100;1;3;1SNA;DETAIL;100100;2;15
1SNA664;DETAIL;100100;1;3;1SNA;DETAIL;100100;2;15
1SNA665;DETAIL;100100;1;3;1SNA;DETAIL;100100;2;15
1SNA666;DETAIL;100100;1;3;1SNA;DETAIL;100100;2;15
1SNA667;DETAIL;100100;1;3;1SNA;DETAIL;100100;2;15
1SNA668;DETAIL;100100;1;3;1SNA;DETAIL;100100;2;15
1SNA669;DETAIL;100100;1;3;1SNA;DETAIL;100100;2;15
1SNA670;DETAIL;100100;1;3;1SNA;DETAIL;100100;2;15
1SNA671;DETAIL;100100;1;3;1SNA;DETAIL;100100;2;15
1SNA672;DETAIL;100100;1;3;1SNA;DETAIL;100100;2;15
1SNA673;DETAIL;100100;1;3;1SNA;DETAIL;100100;2;15
1SNA674;DETAIL;100100;1;3;1SNA;DETAIL;100100;2;15
1SNA675;DETAIL;100100;1;3;1SNA;DETAIL;100100;2;15
1SNA676;DETAIL;100100;1;3;1SNA;DETAIL;100100;2;15
1SNA677;DETAIL;100100;1;3;1SNA;DETAIL;100100;2;15
1SNA678;DETAIL;100100;1;3;1SNA;DETAIL;100100;2;15
1SNA679;DETAIL;100100;1;3;1SNA;DETAIL;100100;2;15
1SNA680;DETAIL;100100;1;3;1SNA;DETAIL;100100;2;15
1SNA681;DETAIL;100100;1;3;1SNA;DETAIL;100100;2;15
1SNA682;DETAIL;100100;1;3;1SNA;DETAIL;100100;2;15
1SNA683;DETAIL;100100;1;3;1SNA;DETAIL;100100;2;15
1SNA684;DETAIL;100100;1;3;1SNA;DETAIL;100100;2;15
1SNA685;DETAIL;100100;1;3;1SNA;DETAIL;100100;2;15
1SNA686;DETAIL;100100;1;3;1SNA;DETAIL;100100;2;15
1SNA687;DETAIL;100100;1;3;1SNA;DETAIL;100100;2;15
1SNA688;DETAIL;100100;1;3;1SNA;DETAIL;100100;2;15
1SNA689;DETAIL;100100;1;3;1SNA;DETAIL;100100;2;15
1SNA690;DETAIL;100100;1;3;1SNA;DETAIL;100100;2;15
1SNA691;DETAIL;100100;1;3;1SNA;DETAIL;100100;2;15
1SNA692;DETAIL;100100;1;3;1SNA;DETAIL;100100;2;15
1SNA693;DETAIL;100100;1;3;1SNA;DETAIL;100100;2;15
1SNA694;DETAIL;100100;1;3;1SNA;DETAIL;100100;2;15
1SNA695;DETAIL;100100;1;3;1SNA;DETAIL;100100;2;15
1SNA696;DETAIL;100100;1;3;1SNA;DETAIL;100100;2;15
1SNA697;DETAIL;100100;1;3;1SNA;DETAIL;100100;2;15
1SNA698;DETAIL;100100;1;3;1SNA;DETAIL;100100;2;15
1SNA699;DETAIL;100100;1;3;1SNA;DETAIL;100100;2;15
1SNA700;DETAIL;100100;1;3;1SNA;DETAIL;100100;2;15
1SNA701;DETAIL;100100;1;3;1SNA;DETAIL;100100;2;15
1SNA702;DETAIL;100100;1;3;1SNA;DETAIL;100100;2;15
1SNA703;DETAIL;100100;1;3;1SNA;DETAIL;100100;2;15
1SNA704;DETAIL;100100;1;3;1SNA;DETAIL;100100;2;15
1SNA705;DETAIL;100100;1;3;1SNA;DETAIL;100100;2;15
1SNA706;DETAIL;100100;1;3;1SNA;DETAIL;100100;2;15
1SNA707;DETAIL;100100;1;3;1SNA;DETAIL;100100;2;15
1SNA708;DETAIL;100100;1;3;1SNA;DETAIL;100100;2;15
1SNA709;DETAIL;100100;1;3;1SNA;DETAIL;100100;2;15
1SNA710;DETAIL;100100;1;3;1SNA;DETAIL;100100;2;15
1SNA711;DETAIL;100100;1;3;1SNA;DETAIL;100100;2;15
1SNA712;DETAIL;100100;1;3;1SNA;DETAIL;100100;2;15
1SNA713;DETAIL;100100;1;3;1SNA;DETAIL;100100;2;15
1SNA714;DETAIL;100100;1;3;1SNA;DETAIL;100100;2;15
1SNA715;DETAIL;100100;1;3;1SNA;DETAIL;100100;2;15
1SNA716;DETAIL;100100;1;3;1SNA;DETAIL;100100;2;15
1SNA717;DETAIL;100100;1;3;1SNA;DETAIL;100100;2;15
1SNA718;DETAIL;100100;1;3;1SNA;DETAIL;100100;2;15
1SNA719;DETAIL;100100;1;3;1SNA;DETAIL;100100;2;15
1SNA720;DETAIL;100100;1;3;1SNA;DETAIL;100100;2;15
1SNA721;DETAIL;100100;1;3;1SNA;DETAIL;100100;2;15
1SNA722;DETAIL;100100;1;15;1SNA;DETAIL;100100;2;15
1SNA723;DETAIL;100100;1;15;1SNA;DETAIL;100100;2;15
1SNA724;DETAIL;100100;1;15;1SNA;DETAIL;100100;2;15
1SNA725;DETAIL;100100;1;15;1SNA;DETAIL;100100;2;15
1SNA726;DETAIL;100100;1;15;1SNA;DETAIL;100100;2;15
1SNA727;DETAIL;100100;1;15;1SNA;DETAIL;100100;2;15
1SNA728;DETAIL;100100;1;15;1SNA;DETAIL;100100;2;15
1SNA729;DETAIL;100100;1;15;1SNA;DETAIL;100100;2;15
1SNA730;DETAIL;100100;1;15;1SNA;DETAIL;100100;2;15
1SNA731;DETAIL;100100;1;15;1SNA;DETAIL;100100;2;15
1SNA732;DETAIL;100100;1;15;1SNA;DETAIL;100100;2;15
1SNA733;DETAIL;100100;1;15;1SNA;DETAIL;100100;2;15
1SNA734;DETAIL;100100;1;15;1SNA;DETAIL;100100;2;15
1SNA735;DETAIL;100100;1;15;1SNA;DETAIL;100100;2;15
1SNA736;DETAIL;100100;1;15;1SNA;DETAIL;100100;2;15
1SNA737;DETAIL;100100;1;15;1SNA;DETAIL;100100;2;15
1SNA738;DETAIL;100100;1;15;1SNA;DETAIL;100100;2;15
1SNA739;DETAIL;100100;1;15;1SNA;DETAIL;100100;2;15
1SNA740;DETAIL;100100;1;15;1SNA;DETAIL;100100;2;15
1SNA741;DETAIL;100100;1;15;1SNA;DETAIL;100100;2;15
1SNA742;DETAIL;100100;1;15;1SNA;DETAIL;100100;2;15
1SNA743;DETAIL;100100;1;15;1SNA;DETAIL;100100;2;15
1SNA744;DETAIL;100100;1;15;1SNA;DETAIL;100100;2;15
1SNA745;DETAIL;100100;1;15;1SNA;DETAIL;100100;2;15
1SNA746;DETAIL;100100;1;15;1SNA;DETAIL;100100;2;15
1SNA747;DETAIL;100100;1;15;1SNA;DETAIL;100100;2;15
1SNA748;DETAIL;100100;1;15;1SNA;DETAIL;100100;2;15
1SNA749;DETAIL;100100;1;15;1SNA;DETAIL;100100;2;15
1SNA750;DETAIL;100100;1;15;1SNA;DETAIL;100100;2;15
1SNA751;DETAIL;100100;1;15;1SNA;DETAIL;100100;2;15
1SNA752;DETAIL;100100;1;15;1SNA;DETAIL;100100;2;15
1SNA753;DETAIL;100100;1;15;1SNA;DETAIL;100100;2;15
1SNA754;DETAIL;100100;1;15;1SNA;DETAIL;100100;2;15
1SNA755;DETAIL;100100;1;15;1SNA;DETAIL;100100;2;15
1SNA756;DETAIL;100100;1;15;1SNA;DETAIL;100100;2;15
1SNA757;DETAIL;100100;1;15;1SNA;DETAIL;100100;2;15
1SNA758;DETAIL;100100;1;15;1SNA;DETAIL;100100;2;15
1SNA759;DETAIL;100100;1;15;1SNA;DETAIL;100100;2;15
1SNA760;DETAIL;100100;1;15;1SNA;DETAIL;100100;2;15
1SNA761;DETAIL;100100;1;15;1SNA;DETAIL;100100;2;15
1SNA762;DETAIL;100100;1;15;1SNA;DETAIL;100100;2;15
1SNA763;DETAIL;100100;1;15;1SNA;DETAIL;100100;2;15
1SNA764;DETAIL;100100;1;15;1SNA;DETAIL;100100;2;15
1SNA765;DETAIL;100100;1;15;1SNA;DETAIL;100100;2;15
1SNA766;DETAIL;100100;1;15;1SNA;DETAIL;100100;2;15
1SNA767;DETAIL;100100;1;15;1SNA;DETAIL;100100;2;15
1SNA768;DETAIL;100100;1;15;1SNA;DETAIL;100100;2;15
1SNA769;DETAIL;100100;1;15;1SNA;DETAIL;100100;2;15
1SNA770;DETAIL;100100;1;15;1SNA;DETAIL;100100;2;15
1SNA771;DETAIL;100100;1;15;1SNA;DETAIL;100100;2;15
1SNA772;DETAIL;100100;1;15;1SNA;DETAIL;100100;2;15
1SNA773;DETAIL;100100;1;15;1SNA;DETAIL;100100;2;15
1SNA774;DETAIL;100100;1;15;1SNA;DETAIL;100100;2;15
1SNA775;DETAIL;100100;1;15;1SNA;DETAIL;100100;2;15
1SNA776;DETAIL;100100;1;15;1SNA;DETAIL;100100;2;15
1SNA777;DETAIL;100100;1;15;1SNA;DETAIL;100100;2;15
1SNA778;DETAIL;100100;1;15;1SNA;DETAIL;100100;2;15
1SNA779;DETAIL;100100;1;15;1SNA;DETAIL;100100;2;15
1SNA780;DETAIL;100100;1;15;1SNA;DETAIL;100100;2;15
1SNA781;DETAIL;100100;1;15;1SNA;DETAIL;100100;2;15
1SNA782;DETAIL;100100;1;15;1SNA;DETAIL;100100;2;15
1SNA783;DETAIL;100100;1;15;1SNA;DETAIL;100100;2;15
1SNA784;DETAIL;100100;1;15;1SNA;DETAIL;100100;2;15
1SNA785;DETAIL;100100;1;15;1SNA;DETAIL;100100;2;15
1SNA786;DETAIL;100100;1;15;1SNA;DETAIL;100100;2;15
1SNA787;DETAIL;100100;1;15;1SNA;DETAIL;100100;2;15
1SNA788;DETAIL;100100;1;15;1SNA;DETAIL;100100;2;15
1SNA789;DETAIL;100100;1;15;1SNA;DETAIL;100100;2;15
1SNA790;DETAIL;100100;1;15;1SNA;DETAIL;100100;2;15
1SNA791;DETAIL;100100;1;15;1SNA;DETAIL;100100;2;15
1SNA792;DETAIL;100100;1;15;1SNA;DETAIL;100100;2;15
1SNA793;DETAIL;100100;1;15;1SNA;DETAIL;100100;2;15
1SNA794;DETAIL;100100;1;15;1SNA;DETAIL;100100;2;15
1SNA795;DETAIL;100100;1;15;1SNA;DETAIL;100100;2;15
1SNA796;DETAIL;100100;1;15;1SNA;DETAIL;100100;2;15
1SNA797;DETAIL;100100;1;15;1SNA;DETAIL;100100;2;15
1SNA798;DETAIL;100100;1;15;1SNA;DETAIL;100100;2;15
1SNA799;DETAIL;100100;1;15;1SNA;DETAIL;100100;2;15
1SNA800;DETAIL;100100;1;15;1SNA;DETAIL;100100;2;15
1SNA801;DETAIL;100100;1;15;1SNA;DETAIL;100100;2;15
1SNA802;DETAIL;100100;1;15;1SNA;DETAIL;100100;2;15
1SNA803;DETAIL;100100;1;15;1SNA;DETAIL;100100;2;15
1SNA804;DETAIL;100100;1;15;1SNA;DETAIL;100100;2;15
1SNA805;DETAIL;100100;1;15;1SNA;DETAIL;100100;2;15
1SNA806;DETAIL;100100;1;15;1SNA;DETAIL;100100;2;15
1SNA807;DETAIL;100100;1;15;1SNA;DETAIL;100100;2;15
1SNA808;DETAIL;100100;1;15;1SNA;DETAIL;100100;2;15
1SNA809;DETAIL;100100;1;15;1SNA;DETAIL;100100;2;15
1SNA810;DETAIL;100100;1;15;1SNA;DETAIL;100100;2;15
1SNA811;DETAIL;100100;1;15;1SNA;DETAIL;100100;2;15
1SNA812;DETAIL;100100;1;15;1SNA;DETAIL;100100;2;15
1SNA813;DETAIL;100100;1;15;1SNA;DETAIL;100100;2;15
1SNA814;DETAIL;100100;1;15;1SNA;DETAIL;100100;2;15
1SNA815;DETAIL;100100;1;15;1SNA;DETAIL;100100;2;15
1SNA816;DETAIL;100100;1;15;1SNA;DETAIL;100100;2;15
1SNA817;DETAIL;100100;1;15;1SNA;DETAIL;100100;2;15
1SNA818;DETAIL;100100;1;15;1SNA;DETAIL;100100;2;15
1SNA819;DETAIL;100100;1;15;1SNA;DETAIL;100100;2;15
1SNA820;DETAIL;100100;1;15;1SNA;DETAIL;100100;2;15
1SNA821;DETAIL;100100;1;15;1SNA;DETAIL;100100;2;15
1SNA822;DETAIL;100100;1;15;1SNA;DETAIL;100100;2;15
1SNA823;DETAIL;100100;1;15;1SNA;DETAIL;100100;2;15
1SNA824;DETAIL;100100;1;15;1SNA;DETAIL;100100;2;15
1SNA825;DETAIL;100100;1;15;1SNA;DETAIL;100100;2;15
1SNA826;DETAIL;100100;1;15;1SNA;DETAIL;100100;2;15
1SNA827;DETAIL;100100;1;15;1SNA;DETAIL;100100;2;15
1SNA828;DETAIL;100100;1;15;1SNA;DETAIL;100100;2;15
1SNA829;DETAIL;100100;1;15;1SNA;DETAIL;100100;2;15
1SNA830;DETAIL;100100;1;15;1SNA;DETAIL;100100;2;15
1SNA831;DETAIL;100100;1;15;1SNA;DETAIL;100100;2;15
1SNA832;DETAIL;100100;1;15;1SNA;DETAIL;100100;2;15
1SNA833;DETAIL;100100;1;15;1SNA;DETAIL;100100;2;15
1SNA834;DETAIL;100100;1;15;1SNA;DETAIL;100100;2;15
1SNA835;DETAIL;100100;1;15;1SNA;DETAIL;100100;2;15
1SNA836;DETAIL;100100;1;15;1SNA;DETAIL;100100;2;15
1SNA837;DETAIL;100100;1;15;1SNA;DETAIL;100100;2;15
1SNA838;DETAIL;100100;1;15;1SNA;DETAIL;100100;2;15
1SNA839;DETAIL;100100;1;15;1SNA;DETAIL;100100;2;15
1SNA840;DETAIL;100100;1;15;1SNA;DETAIL;100100;2;15
1SNA841;DETAIL;100100;1;15;1SNA;DETAIL;100100;2;15
1SNA842;DETAIL;100100;1;15;1SNA;DETAIL;100100;2;15
1SNA843;DETAIL;100100;1;15;1SNA;DETAIL;100100;2;15
1SNA844;DETAIL;100100;1;15;1SNA;DETAIL;100100;2;15
1SNA845;DETAIL;100100;1;15;1SNA;DETAIL;100100;2;15
1SNA846;DETAIL;100100;1;15;1SNA;DETAIL;100100;2;15
1SNA847;DETAIL;100100;1;15;1SNA;DETAIL;100100;2;15
1SNA848;DETAIL;100100;1;15;1SNA;DETAIL;100100;2;15
1SNA849;DETAIL;100100;1;15;1SNA;DETAIL;100100;2;15
1SNA850;DETAIL;100100;1;15;1SNA;DETAIL;100100;2;15
1SNA851;DETAIL;100100;1;15;1SNA;DETAIL;100100;2;15
1SNA852;DETAIL;100100;1;15;1SNA;DETAIL;100100;2;15
1SNA853;DETAIL;100100;1;15;1SNA;DETAIL;100100;2;15
1SNA854;DETAIL;100100;1;15;1SNA;DETAIL;100100;2;15
1SNA855;DETAIL;100100;1;15;1SNA;DETAIL;100100;2;15
1SNA856;DETAIL;100100;1;15;1SNA;DETAIL;100100;2;15
1SNA857;DETAIL;100100;1;15;1SNA;DETAIL;100100;2;15
1SNA858;DETAIL;100100;1;15;1SNA;DETAIL;100100;2;15
1SNA859;DETAIL;100100;1;15;1SNA;DETAIL;100100;2;15
1SNA860;DETAIL;100100;1;15;1SNA;DETAIL;100100;2;15
1SNA861;DETAIL;100100;1;15;1SNA;DETAIL;100100;2;15
1SNA862;DETAIL;100100;1;15;1SNA;DETAIL;100100;2;15
1SNA863;DETAIL;100100;1;15;1SNA;DETAIL;100100;2;15
1SNA864;DETAIL;100100;1;15;1SNA;DETAIL;100100;2;15
1SNA865;DETAIL;100100;1;15;1SNA;DETAIL;100100;2;15
1SNA866;DETAIL;100100;1;15;1SNA;DETAIL;100100;2;15
1SNA867;DETAIL;100100;1;15;1SNA;DETAIL;100100;2;15
1SNA868;DETAIL;100100;1;15;1SNA;DETAIL;100100;2;15
1SNA869;DETAIL;100100;1;15;1SNA;DETAIL;100100;2;15
1SNA870;DETAIL;100100;1;15;1SNA;DETAIL;100100;2;15
1SNA871;DETAIL;100100;1;15;1SNA;DETAIL;100100;2;15
1SNA872;DETAIL;100100;1;15;1SNA;DETAIL;100100;2;15
1SNA873;DETAIL;100100;1;15;1SNA;DETAIL;100100;2;15
1SNA874;DETAIL;100100;1;15;1SNA;DETAIL;100100;2;15
1SNA875;DETAIL;100100;1;15;1SNA;DETAIL;100100;2;15
1SNA876;DETAIL;100100;1;15;1SNA;DETAIL;100100;2;15
1SNA877;DETAIL;100100;1;15;1SNA;DETAIL;100100;2;15
1SNA878;DETAIL;100100;1;15;1SNA;DETAIL;100100;2;15
1SNA879;DETAIL;100100;1;15;1SNA;DETAIL;100100;2;15
1SNA880;DETAIL;100100;1;15;1SNA;DETAIL;100100;2;15
1SNA881;DETAIL;100100;1;15;1SNA;DETAIL;100100;2;15
1SNA882;DETAIL;100100;1;15;1SNA;DETAIL;100100;2;15
1SNA883;DETAIL;100100;1;15;1SNA;DETAIL;100100;2;15
1SNA884;DETAIL;100100;1;15;1SNA;DETAIL;100100;2;15
1SNA885;DETAIL;100100;1;15;1SNA;DETAIL;100100;2;15
1SNA886;DETAIL;100100;1;15;1SNA;DETAIL;100100;2;15
1SNA887;DETAIL;100100;1;15;1SNA;DETAIL;100100;2;15
1SNA888;DETAIL;100100;1;15;1SNA;DETAIL;100100;2;15
1SNA889;DETAIL;100100;1;15;1SNA;DETAIL;100100;2;15
1SNA890;DETAIL;100100;1;15;1SNA;DETAIL;100100;2;15
1SNA891;DETAIL;100100;1;15;1SNA;DETAIL;100100;2;15
1SNA892;DETAIL;100100;1;15;1SNA;DETAIL;100100;2;15
1SNA893;DETAIL;100100;1;15;1SNA;DETAIL;100100;2;15
1SNA894;DETAIL;100100;1;15;1SNA;DETAIL;100100;2;15
1SNA895;DETAIL;100100;1;15;1SNA;DETAIL;100100;2;15
1SNA896;DETAIL;100100;1;15;1SNA;DETAIL;100100;2;15
1SNA897;DETAIL;100100;1;15;1SNA;DETAIL;100100;2;15
1SNA898;DETAIL;100100;1;15;1SNA;DETAIL;100100;2;15
1SNA899;DETAIL;100100;1;15;1SNA;DETAIL;100100;2;15
1SNA900;DETAIL;100100;1;15;1SNA;DETAIL;100100;2;15
1SNA901;DETAIL;100100;1;15;1SNA;DETAIL;100100;2;15
1SNA902;DETAIL;100100;1;15;1SNA;DETAIL;100100;2;15
1SNA903;DETAIL;100100;1;15;1SNA;DETAIL;100100;2;15
1SNA904;DETAIL;100100;1;15;1SNA;DETAIL;100100;2;15
1SNA905;DETAIL;100100;1;15;1SNA;DETAIL;100100;2;15
1SNA906;DETAIL;100100;1;15;1SNA;DETAIL;100100;2;15
1SNA907;DETAIL;100100;1;15;1SNA;DETAIL;100100;2;15
1SNA908;DETAIL;100100;1;15;1SNA;DETAIL;100100;2;15
1SNA909;DETAIL;100100;1;15;1SNA;DETAIL;100100;2;15
1SNA910;DETAIL;100100;1;15;1SNA;DETAIL;100100;2;15
1SNA911;DETAIL;100100;1;15;1SNA;DETAIL;100100;2;15
1SNA912;DETAIL;100100;1;15;1SNA;DETAIL;100100;2;15
1SNA913;DETAIL;100100;1;15;1SNA;DETAIL;100100;2;15
1SNA914;DETAIL;100100;1;15;1SNA;DETAIL;100100;2;15
1SNA915;DETAIL;100100;1;15;1SNA;DETAIL;100100;2;15
1SNA916;DETAIL;100100;1;15;1SNA;DETAIL;100100;2;15
1SNA917;DETAIL;100100;1;15;1SNA;DETAIL;100100;2;15
1SNA918;DETAIL;100100;1;15;1SNA;DETAIL;100100;2;15
1SNA919;DETAIL;100100;1;15;1SNA;DETAIL;100100;2;15
1SNA920;DETAIL;100100;1;15;1SNA;DETAIL;100100;2;15
1SNA921;DETAIL;100100;1;15;1SNA;DETAIL;100100;2;15
1SNA922;DETAIL;100100;1;15;1SNA;DETAIL;100100;2;15
1SNA923;DETAIL;100100;1;15;1SNA;DETAIL;100100;2;15
1SNA924;DETAIL;100100;1;15;1SNA;DETAIL;100100;2;15
1SNA925;DETAIL;100100;1;15;1SNA;DETAIL;100100;2;15
1SNA926;DETAIL;100100;1;15;1SNA;DETAIL;100100;2;15
1SNA927;DETAIL;100100;1;15;1SNA;DETAIL;100100;2;15
1SNA928;DETAIL;100100;1;15;1SNA;DETAIL;100100;2;15
1SNA929;DETAIL;100100;1;15;1SNA;DETAIL;100100;2;15
1SNA930;DETAIL;100100;1;15;1SNA;DETAIL;100100;2;15
1SNA931;DETAIL;100100;1;15;1SNA;DETAIL;100100;2;15
1SNA932;DETAIL;100100;1;15;1SNA;DETAIL;100100;2;15
1SNA933;DETAIL;100100;1;15;1SNA;DETAIL;100100;2;15
1SNA934;DETAIL;100100;1;15;1SNA;DETAIL;100100;2;15
1SNA935;DETAIL;100100;1;15;1SNA;DETAIL;100100;2;15
1SNA936;DETAIL;100100;1;15;1SNA;DETAIL;100100;2;15
1SNA937;DETAIL;100100;1;15;1SNA;DETAIL;100100;2;15
1SNA938;DETAIL;100100;1;15;1SNA;DETAIL;100100;2;15
1SNA939;DETAIL;100100;1;15;1SNA;DETAIL;100100;2;15
1SNA940;DETAIL;100100;1;15;1SNA;DETAIL;100100;2;15
1SNA941;DETAIL;100100;1;15;1SNA;DETAIL;100100;2;15
1SNA942;DETAIL;100100;1;15;1SNA;DETAIL;100100;2;15
1SNA943;DETAIL;100100;1;15;1SNA;DETAIL;100100;2;15
1SNA944;DETAIL;100100;1;15;1SNA;DETAIL;100100;2;15
1SNA945;DETAIL;100100;1;15;1SNA;DETAIL;100100;2;15
1SNA946;DETAIL;100100;1;15;1SNA;DETAIL;100100;2;15
1SNA947;DETAIL;100100;1;15;1SNA;DETAIL;100100;2;15
1SNA948;DETAIL;100100;1;15;1SNA;DETAIL;100100;2;15
1SNA949;DETAIL;100100;1;15;1SNA;DETAIL;100100;2;15
1SNA950;DETAIL;100100;1;15;1SNA;DETAIL;100100;2;15
1SNA951;DETAIL;100100;1;15;1SNA;DETAIL;100100;2;15
1SNA952;DETAIL;100100;1;15;1SNA;DETAIL;100100;2;15
1SNA953;DETAIL;100100;1;15;1SNA;DETAIL;100100;2;15
1SNA954;DETAIL;100100;1;15;1SNA;DETAIL;100100;2;15
1SNA955;DETAIL;100100;1;15;1SNA;DETAIL;100100;2;15
1SNA956;DETAIL;100100;1;15;1SNA;DETAIL;100100;2;15
1SNA957;DETAIL;100100;1;15;1SNA;DETAIL;100100;2;15
1SNA958;DETAIL;100100;1;15;1SNA;DETAIL;100100;2;15
1SNA959;DETAIL;100100;1;15;1SNA;DETAIL;100100;2;15
1SNA960;DETAIL;100100;1;15;1SNA;DETAIL;100100;2;15
1SNA961;DETAIL;100100;1;15;1SNA;DETAIL;100100;2;15
1SNA962;DETAIL;100100;1;15;1SNA;DETAIL;100100;2;15
1SNA963;DETAIL;100100;1;15;1SNA;DETAIL;100100;2;15
1SNA964;DETAIL;100100;1;15;1SNA;DETAIL;100100;2;15
1SNA965;DETAIL;100100;1;15;1SNA;DETAIL;100100;2;15
1SNA966;DETAIL;100100;1;15;1SNA;DETAIL;100100;2;15
1SNA967;DETAIL;100100;1;15;1SNA;DETAIL;100100;2;15
1SNA968;DETAIL;100100;1;15;1SNA;DETAIL;100100;2;15
1SNA969;DETAIL;100100;1;15;1SNA;DETAIL;100100;2;15
1SNA970;DETAIL;100100;1;15;1SNA;DETAIL;100100;2;15
1SNA971;DETAIL;100100;1;15;1SNA;DETAIL;100100;2;15
1SNA972;DETAIL;100100;1;15;1SNA;DETAIL;100100;2;15
1SNA973;DETAIL;100100;1;15;1SNA;DETAIL;100100;2;15
1SNA974;DETAIL;100100;1;15;1SNA;DETAIL;100100;2;15
1SNA975;DETAIL;100100;1;15;1SNA;DETAIL;100100;2;15
1SNA976;DETAIL;100100;1;15;1SNA;DETAIL;100100;2;15
1SNA977;DETAIL;100100;1;15;1SNA;DETAIL;100100;2;15
1SNA978;DETAIL;100100;1;15;1SNA;DETAIL;100100;2;15
1SNA979;DETAIL;100100;1;15;1SNA;DETAIL;100100;2;15
1SNA980;DETAIL;100100;1;15;1SNA;DETAIL;100100;2;15
1SNA981;DETAIL;100100;1;15;1SNA;DETAIL;100100;2;15
1SNA982;DETAIL;100100;1;15;1SNA;DETAIL;100100;2;15
1SNA983;DETAIL;100100;1;15;1SNA;DETAIL;100100;2;15
1SNA984;DETAIL;100100;1;15;1SNA;DETAIL;100100;2;15
1SNA985;DETAIL;100100;1;15;1SNA;DETAIL;100100;2;15
1SNA986;DETAIL;100100;1;15;1SNA;DETAIL;100100;2;15
1SNA987;DETAIL;100100;1;15;1SNA;DETAIL;100100;2;15
1SNA988;DETAIL;100100;1;15;1SNA;DETAIL;100100;2;15
1SNA989;DETAIL;100100;1;15;1SNA;DETAIL;100100;2;15
1SNA990;DETAIL;100100;1;15;1SNA;DETAIL;100100;2;15
1SNA991;DETAIL;100100;1;15;1SNA;DETAIL;100100;2;15
1SNA992;DETAIL;100100;1;15;1SNA;DETAIL;100100;2;15
1SNA993;DETAIL;100100;1;15;1SNA;DETAIL;100100;2;15
1SNA994;DETAIL;100100;1;15;1SNA;DETAIL;100100;2;15
1SNA995;DETAIL;100100;1;15;1SNA;DETAIL;100100;2;15
1SNA996;DETAIL;100100;1;15;1SNA;DETAIL;100100;2;15
1SNA997;DETAIL;100100;1;15;1SNA;DETAIL;100100;2;15
1SNA998;DETAIL;100100;1;15;1SNA;DETAIL;100100;2;15
1SNA999;DETAIL;100100;1;15;1SNA;DETAIL;100100;2;15
1SNA1000;DETAIL;100100;1;15;1SNA;DETAIL;100100;2;15
1SNA1001;DETAIL;100100;1;15;1SNA;DETAIL;100100;2;15
1SNA1002;DETAIL;100100;1;15;1SNA;DETAIL;100100;2;15
1SNA1003;DETAIL;100100;1;15;1SNA;DETAIL;100100;2;15
1SNA1004;DETAIL;100100;1;15;1SNA;DETAIL;100100;2;15
1SNA1005;DETAIL;100100;1;15;1SNA;DETAIL;100100;2;15
1SNA1006;DETAIL;100100;1;15;1SNA;DETAIL;100100;2;15
1SNA1007;DETAIL;100100;1;15;1SNA;DETAIL;100100;2;15
1SNA1008;DETAIL;100100;1;15;1SNA;DETAIL;100100;2;15
1SNA1009;DETAIL;100100;1;15;1SNA;DETAIL;100100;2;15
1SNA1010;DETAIL;100100;1;15;1SNA;DETAIL;100100;2;15
1SNA1011;DETAIL;100100;1;15;1SNA;DETAIL;100100;2;15
1SNA1012;DETAIL;100100;1;15;1SNA;DETAIL;100100;2;15
1SNA1013;DETAIL;100100;1;15;1SNA;DETAIL;100100;2;15
1SNA1014;DETAIL;100100;1;15;1SNA;DETAIL;100100;2;15
1SNA1015;DETAIL;100100;1;15;1SNA;DETAIL;100100;2;15
1SNA1016;DETAIL;100100;1;15;1SNA;DETAIL;100100;2;15
1SNA1017;DETAIL;100100;1;15;1SNA;DETAIL;100100;2;15
1SNA1018;DETAIL;100100;1;15;1SNA;DETAIL;100100;2;15
1SNA1019;DETAIL;100100;1;15;1SNA;DETAIL;100100;2;15
1SNA1020;DETAIL;100100;1;15;1SNA;DETAIL;100100;2;15
1SNA1021;DETAIL;100100;1;15;1SNA;DETAIL;100100;2;15
1SNA1022;DETAIL;100100;1;15;1SNA;DETAIL;100100;2;15
1SNA1023;DETAIL;100100;1;15;1SNA;DETAIL;100100;2;15
1SNA1024;DETAIL;100100;1;15;1SNA;DETAIL;100100;2;15
1SNA1025;DETAIL;100100;1;15;1SNA;DETAIL;100100;2;15
1SNA1026;DETAIL;100100;1;15;1SNA;DETAIL;100100;2;15
1SNA1027;DETAIL;100100;1;15;1SNA;DETAIL;100100;2;15
1SNA1028;DETAIL;100100;1;15;1SNA;DETAIL;100100;2;15
1SNA1029;DETAIL;100100;1;15;1SNA;DETAIL;100100;2;15
1SNA1030;DETAIL;100100;1;15;1SNA;DETAIL;100100;2;15
1SNA1031;DETAIL;100100;1;15;1SNA;DETAIL;100100;2;15
1SNA1032;DETAIL;100100;1;15;1SNA;DETAIL;100100;2;15
1SNA1033;DETAIL;100100;1;15;1SNA;DETAIL;100100;2;15
1SNA1034;DETAIL;100100;1;15;1SNA;DETAIL;100100;2;15
1SNA1035;DETAIL;100100;1;15;1SNA;DETAIL;100100;2;15
1SNA1036;DETAIL;100100;1;15;1SNA;DETAIL;100100;2;15
1SNA1037;DETAIL;100100;1;15;1SNA;DETAIL;100100;2;15
1SNA1038;DETAIL;100100;1;15;1SNA;DETAIL;100100;2;15
1SNA1039;DETAIL;100100;1;15;1SNA;DETAIL;100100;2;15
1SNA1040;DETAIL;100100;1;15;1SNA;DETAIL;100100;2;15
1SNA1041;DETAIL;100100;1;15;1SNA;DETAIL;100100;2;15
1SNA1042;DETAIL;100100;1;15;1SNA;DETAIL;100100;2;15
1SNA1043;DETAIL;100100;1;15;1SNA;DETAIL;100100;2;15
1SNA1044;DETAIL;100100;1;15;1SNA;DETAIL;100100;2;15
1SNA1045;DETAIL;100100;1;15;1SNA;DETAIL;100100;2;15
1SNA1046;DETAIL;100100;1;15;1SNA;DETAIL;100100;2;15
1SNA1047;DETAIL;100100;1;15;1SNA;DETAIL;100100;2;15
1SNA1048;DETAIL;100100;1;15;1SNA;DETAIL;100100;2;15
1SNA1049;DETAIL;100100;1;15;1SNA;DETAIL;100100;2;15
1SNA1050;DETAIL;100100;1;15;1SNA;DETAIL;100100;2;15
1SNA1051;DETAIL;100100;1;15;1SNA;DETAIL;100100;2;15
1SNA1052;DETAIL;100100;1;15;1SNA;DETAIL;100100;2;15
1SNA1053;DETAIL;100100;1;15;1SNA;DETAIL;100100;2;15
1SNA1054;DETAIL;100100;1;15;1SNA;DETAIL;100100;2;15
1SNA1055;DETAIL;100100;1;15;1SNA;DETAIL;100100;2;15
1SNA1056;DETAIL;100100;1;15;1SNA;DETAIL;100100;2;15
1SNA1057;DETAIL;100100;1;15;1SNA;DETAIL;100100;2;15
1SNA1058;DETAIL;100100;1;15;1SNA;DETAIL;100100;2;15
1SNA1059;DETAIL;100100;1;15;1SNA;DETAIL;100100;2;15
1SNA1060;DETAIL;100100;1;15;1SNA;DETAIL;100100;2;15
1SNA1061;DETAIL;100100;1;15;1SNA;DETAIL;100100;2;15
1SNA1062;DETAIL;100100;1;15;1SNA;DETAIL;100100;2;15
1SNA1063;DETAIL;100100;1;15;1SNA;DETAIL;100100;2;15
1SNA1064;DETAIL;100100;1;15;1SNA;DETAIL;100100;2;15
1SNA1065;DETAIL;100100;1;15;1SNA;DETAIL;100100;2;15
1SNA1066;DETAIL;100100;1;15;1SNA;DETAIL;100100;2;15
1SNA1067;DETAIL;100100;2;15;1SNA;DETAIL;100100;2;15
1SNA1068;DETAIL;100100;2;15;1SNA;DETAIL;100100;2;15
1SNA1069;DETAIL;100100;2;15;1SNA;DETAIL;100100;2;15
1SNA1070;DETAIL;100100;2;15;1SNA;DETAIL;100100;2;15
1SNA1071;DETAIL;100100;2;15;1SNA;DETAIL;100100;2;15
1SNA1072;DETAIL;100100;2;15;1SNA;DETAIL;100100;2;15
1SNA1073;DETAIL;100100;2;15;1SNA;DETAIL;100100;2;15
1SNA1074;DETAIL;100100;2;15;1SNA;DETAIL;100100;2;15
1SNA1075;DETAIL;100100;2;15;1SNA;DETAIL;100100;2;15
1SNA1076;DETAIL;100100;2;15;1SNA;DETAIL;100100;2;15
1SNA1077;DETAIL;100100;2;15;1SNA;DETAIL;100100;2;15
1SNA1078;DETAIL;100100;2;15;1SNA;DETAIL;100100;2;15
1SNA1079;DETAIL;100100;2;15;1SNA;DETAIL;100100;2;15
1SNA1080;DETAIL;100100;2;15;1SNA;DETAIL;100100;2;15
1SNA1081;DETAIL;100100;2;15;1SNA;DETAIL;100100;2;15
1SNA1082;DETAIL;100100;2;15;1SNA;DETAIL;100100;2;15
1SNA1083;DETAIL;100100;2;15;1SNA;DETAIL;100100;2;15
1SNA1084;DETAIL;100100;2;15;1SNA;DETAIL;100100;2;15
1SNA1085;DETAIL;100100;2;15;1SNA;DETAIL;100100;2;15
1SNA1086;DETAIL;100100;2;15;1SNA;DETAIL;100100;2;15
1SNA1087;DETAIL;100100;2;15;1SNA;DETAIL;100100;2;15
1SNA1088;DETAIL;100100;2;15;1SNA;DETAIL;100100;2;15
1SNA1089;DETAIL;100100;2;15;1SNA;DETAIL;100100;2;15
1SNA1090;DETAIL;100100;2;15;1SNA;DETAIL;100100;2;15
1SNA1091;DETAIL;100100;2;15;1SNA;DETAIL;100100;2;15
1SNA1092;DETAIL;100100;2;15;1SNA;DETAIL;100100;2;15
1SNA1093;DETAIL;100100;2;15;1SNA;DETAIL;100100;2;15
1SNA1094;DETAIL;100100;2;15;1SNA;DETAIL;100100;2;15
1SNA1095;DETAIL;100100;2;15;1SNA;DETAIL;100100;2;15
1SNA1096;DETAIL;100100;2;15;1SNA;DETAIL;100100;2;15
1SNA1097;DETAIL;100100;2;15;1SNA;DETAIL;100100;2;15
1SNA1098;DETAIL;100100;2;15;1SNA;DETAIL;100100;2;15
1SNA1099;DETAIL;100100;2;15;1SNA;DETAIL;100100;2;15
1SNA1100;DETAIL;100100;2;15;1SNA;DETAIL;100100;2;15
1SNA1101;DETAIL;100100;2;15;1SNA;DETAIL;100100;2;15
1SNA1102;DETAIL;100100;2;15;1SNA;DETAIL;100100;2;15
1SNA1103;DETAIL;100100;2;15;1SNA;DETAIL;100100;2;15
1SNA1104;DETAIL;100100;2;15;1SNA;DETAIL;100100;2;15
1SNA1105;DETAIL;100100;2;15;1SNA;DETAIL;100100;2;15
1SNA1106;DETAIL;100100;2;15;1SNA;DETAIL;100100;2;15
1SNA1107;DETAIL;100100;2;15;1SNA;DETAIL;100100;2;15
1SNA1108;DETAIL;100100;2;15;1SNA;DETAIL;100100;2;15
1SNA1109;DETAIL;100100;2;15;1SNA;DETAIL;100100;2;15
1SNA1110;DETAIL;100100;2;15;1SNA;DETAIL;100100;2;15
1SNA1111;DETAIL;100100;2;15;1SNA;DETAIL;100100;2;15
1SNA1112;DETAIL;100100;2;15;1SNA;DETAIL;100100;2;15
1SNA1113;DETAIL;100100;2;15;1SNA;DETAIL;100100;2;15
1SNA1114;DETAIL;100100;2;15;1SNA;DETAIL;100100;2;15
1SNA1115;DETAIL;100100;2;15;1SNA;DETAIL;100100;2;15
1SNA1116;DETAIL;100100;2;15;1SNA;DETAIL;100100;2;15
1SNA1117;DETAIL;100100;2;15;1SNA;DETAIL;100100;2;15
1SNA1118;DETAIL;100100;2;15;1SNA;DETAIL;100100;2;15
1SNA1119;DETAIL;100100;2;15;1SNA;DETAIL;100100;2;15
1SNA1120;DETAIL;100100;2;15;1SNA;DETAIL;100100;2;15
1SNA1121;DETAIL;100100;2;15;1SNA;DETAIL;100100;2;15
1SNA1122;DETAIL;100100;2;15;1SNA;DETAIL;100100;2;15
1SNA1123;DETAIL;100100;2;15;1SNA;DETAIL;100100;2;15
1SNA1124;DETAIL;100100;2;15;1SNA;DETAIL;100100;2;15
1SNA1125;DETAIL;100100;2;15;1SNA;DETAIL;100100;2;15
1SNA1126;DETAIL;100100;2;15;1SNA;DETAIL;100100;2;15
1SNA1127;DETAIL;100100;2;15;1SNA;DETAIL;100100;2;15
1SNA1128;DETAIL;100100;2;15;1SNA;DETAIL;100100;2;15
1SNA1129;DETAIL;100100;2;15;1SNA;DETAIL;100100;2;15
1SNA1130;DETAIL;100100;2;15;1SNA;DETAIL;100100;2;15
1SNA1131;DETAIL;100100;2;15;1SNA;DETAIL;100100;2;15
1SNA1132;DETAIL;100100;2;15;1SNA;DETAIL;100100;2;15
1SNA1133;DETAIL;100100;2;15;1SNA;DETAIL;100100;2;15
1SNA1134;DETAIL;100100;2;15;1SNA;DETAIL;100100;2;15
1SNA1135;DETAIL;100100;2;15;1SNA;DETAIL;100100;2;15
1SNA1136;DETAIL;100100;2;15;1SNA;DETAIL;100100;2;15
1SNA1137;DETAIL;100100;2;15;1SNA;DETAIL;100100;2;15
1SNA1138;DETAIL;100100;2;15;1SNA;DETAIL;100100;2;15
1SNA1139;DETAIL;100100;2;15;1SNA;DETAIL;100100;2;15
1SNA1140;DETAIL;100100;2;15;1SNA;DETAIL;100100;2;15
1SNA1141;DETAIL;100100;2;15;1SNA;DETAIL;100100;2;15
1SNA1142;DETAIL;100100;2;15;1SNA;DETAIL;100100;2;15
1SNA1143;DETAIL;100100;2;15;1SNA;DETAIL;100100;2;15
1SNA1144;DETAIL;100100;2;15;1SNA;DETAIL;100100;2;15
1SNA1145;DETAIL;100100;2;15;1SNA;DETAIL;100100;2;15
1SNA1146;DETAIL;100100;2;15;1SNA;DETAIL;100100;2;15
1SNA1147;DETAIL;100100;2;15;1SNA;DETAIL;100100;2;15
1SNA1148;DETAIL;100100;2;15;1SNA;DETAIL;100100;2;15
1SNA1149;DETAIL;100100;2;15;1SNA;DETAIL;100100;2;15
1SNA1150;DETAIL;100100;2;15;1SNA;DETAIL;100100;2;15
1SNA1151;DETAIL;100100;2;15;1SNA;DETAIL;100100;2;15
1SNA1152;DETAIL;100100;2;15;1SNA;DETAIL;100100;2;15
1SNA1153;DETAIL;100100;2;15;1SNA;DETAIL;100100;2;15
1SNA1154;DETAIL;100100;2;15;1SNA;DETAIL;100100;2;15
1SNA1155;DETAIL;100100;2;15;1SNA;DETAIL;100100;2;15
1SNA1156;DETAIL;100100;2;15;1SNA;DETAIL;100100;2;15
1SNA1157;DETAIL;100100;2;15;1SNA;DETAIL;100100;2;15
1SNA1158;DETAIL;100100;2;15;1SNA;DETAIL;100100;2;15
1SNA1159;DETAIL;100100;2;15;1SNA;DETAIL;100100;2;15
1SNA1160;DETAIL;100100;2;15;1SNA;DETAIL;100100;2;15
1SNA1161;DETAIL;100100;2;15;1SNA;DETAIL;100100;2;15
1SNA1162;DETAIL;100100;2;15;1SNA;DETAIL;100100;2;15
1SNA1163;DETAIL;100100;2;15;1SNA;DETAIL;100100;2;15
1SNA1164;DETAIL;100100;2;15;1SNA;DETAIL;100100;2;15
1SNA1165;DETAIL;100100;2;15;1SNA;DETAIL;100100;2;15
1SNA1166;DETAIL;100100;2;15;1SNA;DETAIL;100100;2;15
1SNA1167;DETAIL;100100;2;15;1SNA;DETAIL;100100;2;15
1SNA1168;DETAIL;100100;2;15;1SNA;DETAIL;100100;2;15
1SNA1169;DETAIL;100100;2;15;1SNA;DETAIL;100100;2;15
1SNA1170;DETAIL;100100;2;15;1SNA;DETAIL;100100;2;15
1SNA1171;DETAIL;100100;2;15;1SNA;DETAIL;100100;2;15
1SNA1172;DETAIL;100100;2;15;1SNA;DETAIL;100100;2;15
1SNA1173;DETAIL;100100;2;15;1SNA;DETAIL;100100;2;15
1SNA1174;DETAIL;100100;2;15;1SNA;DETAIL;100100;2;15
1SNA1175;DETAIL;100100;2;15;1SNA;DETAIL;100100;2;15
1SNA1176;DETAIL;100100;2;15;1SNA;DETAIL;100100;2;15
1SNA1177;DETAIL;100100;2;15;1SNA;DETAIL;100100;2;15
1SNA1178;DETAIL;100100;2;15;1SNA;DETAIL;100100;2;15
1SNA1179;DETAIL;100100;2;15;1SNA;DETAIL;100100;2;15
1SNA1180;DETAIL;100100;2;15;1SNA;DETAIL;100100;2;15
1SNA1181;DETAIL;100100;2;15;1SNA;DETAIL;100100;2;15
1SNA1182;DETAIL;100100;2;15;1SNA;DETAIL;100100;2;15
1SNA1183;DETAIL;100100;2;15;1SNA;DETAIL;100100;2;15
1SNA1184;DETAIL;100100;2;15;1SNA;DETAIL;100100;2;15
1SNA1185;DETAIL;100100;2;15;1SNA;DETAIL;100100;2;15
1SNA1186;DETAIL;100100;2;15;1SNA;DETAIL;100100;2;15
1SNA1187;DETAIL;100100;2;15;1SNA;DETAIL;100100;2;15
1SNA1188;DETAIL;100100;2;15;1SNA;DETAIL;100100;2;15
1SNA1189;DETAIL;100100;2;15;1SNA;DETAIL;100100;2;15
1SNA1190;DETAIL;100100;2;15;1SNA;DETAIL;100100;2;15
1SNA1191;DETAIL;100100;2;15;1SNA;DETAIL;100100;2;15
1SNA1192;DETAIL;100100;2;15;1SNA;DETAIL;100100;2;15
1SNA1193;DETAIL;100100;2;15;1SNA;DETAIL;100100;2;15
1SNA1194;DETAIL;100100;2;15;1SNA;DETAIL;100100;2;15
1SNA1195;DETAIL;100100;2;15;1SNA;DETAIL;100100;2;15
1SNA1196;DETAIL;100100;2;15;1SNA;DETAIL;100100;2;15
1SNA1197;DETAIL;100100;2;15;1SNA;DETAIL;100100;2;15
1SNA1198;DETAIL;100100;2;15;1SNA;DETAIL;100100;2;15
1SNA1199;DETAIL;100100;2;15;1SNA;DETAIL;100100;2;15
1SNA1200;DETAIL;100100;2;15;1SNA;DETAIL;100100;2;15
1SNA1201;DETAIL;100100;2;15;1SNA;DETAIL;100100;2;15
1SNA1202;DETAIL;100100;2;15;1SNA;DETAIL;100100;2;15
1SNA1203;DETAIL;100100;2;15;1SNA;DETAIL;100100;2;15
1SNA1204;DETAIL;100100;2;15;1SNA;DETAIL;100100;2;15
1SNA1205;DETAIL;100100;2;15;1SNA;DETAIL;100100;2;15
1SNA1206;DETAIL;100100;2;15;1SNA;DETAIL;100100;2;15
1SNA1207;DETAIL;100100;2;15;1SNA;DETAIL;100100;2;15
1SNA1208;DETAIL;100100;2;15;1SNA;DETAIL;100100;2;15
1SNA1209;DETAIL;100100;2;15;1SNA;DETAIL;100100;2;15
1SNA1210;DETAIL;100100;2;15;1SNA;DETAIL;100100;2;15
1SNA1211;DETAIL;100100;2;15;1SNA;DETAIL;100100;2;15
1SNA1212;DETAIL;100100;2;15;1SNA;DETAIL;100100;2;15
1SNA1213;DETAIL;100100;2;15;1SNA;DETAIL;100100;2;15
1SNA1214;DETAIL;100100;2;15;1SNA;DETAIL;100100;2;15
1SNA1215;DETAIL;100100;2;15;1SNA;DETAIL;100100;2;15
1SNA1216;DETAIL;100100;2;15;1SNA;DETAIL;100100;2;15
1SNA1217;DETAIL;100100;2;15;1SNA;DETAIL;100100;2;15
1SNA1218;DETAIL;100100;2;15;1SNA;DETAIL;100100;2;15
1SNA1219;DETAIL;100100;2;15;1SNA;DETAIL;100100;2;15
1SNA1220;DETAIL;100100;2;15;1SNA;DETAIL;100100;2;15
1SNA1221;DETAIL;100100;2;15;1SNA;DETAIL;100100;2;15
1SNA1222;DETAIL;100100;2;15;1SNA;DETAIL;100100;2;15
1SNA1223;DETAIL;100100;2;15;1SNA;DETAIL;100100;2;15
1SNA1224;DETAIL;100100;2;15;1SNA;DETAIL;100100;2;15
1SNA1225;DETAIL;100100;2;15;1SNA;DETAIL;100100;2;15
1SNA1226;DETAIL;100100;2;15;1SNA;DETAIL;100100;2;15
1SNA1227;DETAIL;100100;2;15;1SNA;DETAIL;100100;2;15
1SNA1228;DETAIL;100100;2;15;1SNA;DETAIL;100100;2;15
1SNA1229;DETAIL;100100;2;15;1SNA;DETAIL;100100;2;15
1SNA1230;DETAIL;100100;2;15;1SNA;DETAIL;100100;2;15
1SNA1231;DETAIL;100100;2;15;1SNA;DETAIL;100100;2;15
1SNA1232;DETAIL;100100;2;15;1SNA;DETAIL;100100;2;15
1SNA1233;DETAIL;100100;2;15;1SNA;DETAIL;100100;2;15
1SNA1234;DETAIL;100100;2;15;1SNA;DETAIL;100100;2;15
1SNA1235;DETAIL;100100;2;15;1SNA;DETAIL;100100;2;15
1SNA1236;DETAIL;100100;2;15;1SNA;DETAIL;100100;2;15
1SNA1237;DETAIL;100100;2;15;1SNA;DETAIL;100100;2;15
1SNA1238;DETAIL;100100;2;15;1SNA;DETAIL;100100;2;15
1SNA1239;DETAIL;100100;2;15;1SNA;DETAIL;100100;2;15
1SNA1240;DETAIL;100100;2;15;1SNA;DETAIL;100100;2;15
1SNA1241;DETAIL;100100;2;15;1SNA;DETAIL;100100;2;15
1SNA1242;DETAIL;100100;2;15;1SNA;DETAIL;100100;2;15
1SNA1243;DETAIL;100100;2;15;1SNA;DETAIL;100100;2;15
1SNA1244;DETAIL;100100;2;15;1SNA;DETAIL;100100;2;15
1SNA1245;DETAIL;100100;2;15;1SNA;DETAIL;100100;2;15
1SNA1246;DETAIL;100100;2;15;1SNA;DETAIL;100100;2;15
1SNA1247;DETAIL;100100;2;15;1SNA;DETAIL;100100;2;15
1SNA1248;DETAIL;100100;2;15;1SNA;DETAIL;100100;2;15
1SNA1249;DETAIL;100100;2;15;1SNA;DETAIL;100100;2;15
1SNA1250;DETAIL;100100;2;15;1SNA;DETAIL;100100;2;15
1SNA1251;DETAIL;100100;2;15;1SNA;DETAIL;100100;2;15
1SNA1252;DETAIL;100100;2;15;1SNA;DETAIL;100100;2;15
1SNA1253;DETAIL;100100;2;15;1SNA;DETAIL;100100;2;15
1SNA1254;DETAIL;100100;2;15;1SNA;DETAIL;100100;2;15
1SNA1255;DETAIL;100100;2;15;1SNA;DETAIL;100100;2;15
1SNA1256;DETAIL;100100;2;15;1SNA;DETAIL;100100;2;15
1SNA1257;DETAIL;100100;2;15;1SNA;DETAIL;100100;2;15
1SNA1258;DETAIL;100100;2;15;1SNA;DETAIL;100100;2;15
1SNA1259;DETAIL;100100;2;15;1SNA;DETAIL;100100;2;15
1SNA1260;DETAIL;100100;2;15;1SNA;DETAIL;100100;2;15
1SNA1261;DETAIL;100100;2;15;1SNA;DETAIL;100100;2;15
1SNA1262;DETAIL;100100;2;15;1SNA;DETAIL;100100;2;15
1SNA1263;DETAIL;100100;2;15;1SNA;DETAIL;100100;2;15
1SNA1264;DETAIL;100100;2;15;1SNA;DETAIL;100100;2;15
1SNA1265;DETAIL;100100;2;15;1SNA;DETAIL;100100;2;15
1SNA1266;DETAIL;100100;2;15;1SNA;DETAIL;100100;2;15
1SNA1267;DETAIL;100100;2;15;1SNA;DETAIL;100100;2;15
1SNA1268;DETAIL;100100;2;15;1SNA;DETAIL;100100;2;15
1SNA1269;DETAIL;100100;2;15;1SNA;DETAIL;100100;2;15
1SNA1270;DETAIL;100100;2;15;1SNA;DETAIL;100100;2;15
1SNA1271;DETAIL;100100;2;15;1SNA;DETAIL;100100;2;15
1SNA1272;DETAIL;100100;2;15;1SNA;DETAIL;100100;2;15
1SNA1273;DETAIL;100100;2;15;1SNA;DETAIL;100100;2;15
1SNA1274;DETAIL;100100;2;15;1SNA;DETAIL;100100;2;15
1SNA1275;DETAIL;100100;2;15;1SNA;DETAIL;100100;2;15
1SNA1276;DETAIL;100100;2;15;1SNA;DETAIL;100100;2;15
1SNA1277;DETAIL;100100;2;15;1SNA;DETAIL;100100;2;15
1SNA1278;DETAIL;100100;2;15;1SNA;DETAIL;100100;2;15
1SNA1279;DETAIL;100100;2;15;1SNA;DETAIL;100100;2;15
1SNA1280;DETAIL;100100;2;15;1SNA;DETAIL;100100;2;15
1SNA1281;DETAIL;100100;2;15;1SNA;DETAIL;100100;2;15
1SNA1282;DETAIL;100100;2;15;1SNA;DETAIL;100100;2;15
1SNA1283;DETAIL;100100;2;15;1SNA;DETAIL;100100;2;15
1SNA1284;DETAIL;100100;2;15;1SNA;DETAIL;100100;2;15
1SNA1285;DETAIL;100100;2;15;1SNA;DETAIL;100100;2;15
1SNA1286;DETAIL;100100;2;15;1SNA;DETAIL;100100;2;15
1SNA1287;DETAIL;100100;2;15;1SNA;DETAIL;100100;2;15
1SNA1288;DETAIL;100100;2;15;1SNA;DETAIL;100100;2;15
1SNA1289;DETAIL;100100;2;15;1SNA;DETAIL;100100;2;15
1SNA1290;DETAIL;100100;2;15;1SNA;DETAIL;100100;2;15
1SNA1291;DETAIL;100100;2;15;1SNA;DETAIL;100100;2;15
1SNA1292;DETAIL;100100;2;15;1SNA;DETAIL;100100;2;15
1SNA1293;DETAIL;100100;2;15;1SNA;DETAIL;100100;2;15
1SNA1294;DETAIL;100100;2;15;1SNA;DETAIL;100100;2;15
1SNA1295;DETAIL;100100;2;15;1SNA;DETAIL;100100;2;15
1SNA1296;DETAIL;100100;2;15;1SNA;DETAIL;100100;2;15
1SNA1297;DETAIL;100100;2;15;1SNA;DETAIL;100100;2;15
1SNA1298;DETAIL;100100;2;15;1SNA;DETAIL;100100;2;15
1SNA1299;DETAIL;100100;2;15;1SNA;DETAIL;100100;2;15
1SNA1300;DETAIL;100100;2;15;1SNA;DETAIL;100100;2;15
1SNA1301;DETAIL;100100;2;15;1SNA;DETAIL;100100;2;15
1SNA1302;DETAIL;100100;2;15;1SNA;DETAIL;100100;2;15
1SNA1303;DETAIL;100100;2;15;1SNA;DETAIL;100100;2;15
1SNA1304;DETAIL;100100;2;15;1SNA;DETAIL;100100;2;15
1SNA1305;DETAIL;100100;2;15;1SNA;DETAIL;100100;2;15
1SNA1306;DETAIL;100100;2;15;1SNA;DETAIL;100100;2;15
1SNA1307;DETAIL;100100;2;15;1SNA;DETAIL;100100;2;15
1SNA1308;DETAIL;100100;2;15;1SNA;DETAIL;100100;2;15
1SNA1309;DETAIL;100100;2;15;1SNA;DETAIL;100100;2;15
1SNA1310;DETAIL;100100;2;15;1SNA;DETAIL;100100;2;15
1SNA1311;DETAIL;100100;2;15;1SNA;DETAIL;100100;2;15
1SNA1312;DETAIL;100100;2;15;1SNA;DETAIL;100100;2;15
1SNA1313;DETAIL;100100;2;15;1SNA;DETAIL;100100;2;15
1SNA1314;DETAIL;100100;2;15;1SNA;DETAIL;100100;2;15
1SNA1315;DETAIL;100100;2;15;1SNA;DETAIL;100100;2;15
1SNA1316;DETAIL;100100;2;15;1SNA;DETAIL;100100;2;15
1SNA1317;DETAIL;100100;2;15;1SNA;DETAIL;100100;2;15
1SNA1318;DETAIL;100100;2;15;1SNA;DETAIL;100100;2;15
1SNA1319;DETAIL;100100;2;15;1SNA;DETAIL;100100;2;15
1SNA1320;DETAIL;100100;2;15;1SNA;DETAIL;100100;2;15
1SNA1321;DETAIL;100100;2;15;1SNA;DETAIL;100100;2;15
1SNA1322;DETAIL;100100;2;15;1SNA;DETAIL;100100;2;15
1SNA1323;DETAIL;100100;2;15;1SNA;DETAIL;100100;2;15
1SNA1324;DETAIL;100100;2;15;1SNA;DETAIL;100100;2;15
1SNA1325;DETAIL;100100;2;15;1SNA;DETAIL;100100;2;15
1SNA1326;DETAIL;100100;2;15;1SNA;DETAIL;100100;2;15
1SNA1327;DETAIL;100100;2;15;1SNA;DETAIL;100100;2;15
1SNA1328;DETAIL;100100;2;15;1SNA;DETAIL;100100;2;15
1SNA1329;DETAIL;100100;2;15;1SNA;DETAIL;100100;2;15
1SNA1330;DETAIL;100100;2;15;1SNA;DETAIL;100100;2;15
1SNA1331;DETAIL;100100;2;15;1SNA;DETAIL;100100;2;15
1SNA1332;DETAIL;100100;2;15;1SNA;DETAIL;100100;2;15
1SNA1333;DETAIL;100100;2;15;1SNA;DETAIL;100100;2;15
1SNA1334;DETAIL;100100;2;15;1SNA;DETAIL;100100;2;15
1SNA1335;DETAIL;100100;2;15;1SNA;DETAIL;100100;2;15
1SNA1336;DETAIL;100100;2;15;1SNA;DETAIL;100100;2;15
1SNA1337;DETAIL;100100;2;15;1SNA;DETAIL;100100;2;15
1SNA1338;DETAIL;100100;2;15;1SNA;DETAIL;100100;2;15
1SNA1339;DETAIL;100100;2;15;1SNA;DETAIL;100100;2;15
1SNA1340;DETAIL;100100;2;15;1SNA;DETAIL;100100;2;15
1SNA1341;DETAIL;100100;2;15;1SNA;DETAIL;100100;2;15
1SNA1342;DETAIL;100100;2;15;1SNA;DETAIL;100100;2;15
1SNA1343;DETAIL;100100;2;15;1SNA;DETAIL;100100;2;15
1SNA1344;DETAIL;100100;2;15;1SNA;DETAIL;100100;2;15
1SNA1345;DETAIL;100100;2;15;1SNA;DETAIL;100100;2;15
1SNA1346;DETAIL;100100;2;15;1SNA;DETAIL;100100;2;15
1SNA1347;DETAIL;100100;2;15;1SNA;DETAIL;100100;2;15
1SNA1348;DETAIL;100100;2;15;1SNA;DETAIL;100100;2;15
1SNA1349;DETAIL;100100;2;15;1SNA;DETAIL;100100;2;15
1SNA1350;DETAIL;100100;2;15;1SNA;DETAIL;100100;2;15
1SNA1351;DETAIL;100100;2;15;1SNA;DETAIL;100100;2;15
1SNA1352;DETAIL;100100;2;15;1SNA;DETAIL;100100;2;15
1SNA1353;DETAIL;100100;2;15;1SNA;DETAIL;100100;2;15
1SNA1354;DETAIL;100100;2;15;1SNA;DETAIL;100100;2;15
1SNA1355;DETAIL;100100;2;15;1SNA;DETAIL;100100;2;15
1SNA1356;DETAIL;100100;2;15;1SNA;DETAIL;100100;2;15
1SNA1357;DETAIL;100100;2;15;1SNA;DETAIL;100100;2;15
1SNA1358;DETAIL;100100;2;15;1SNA;DETAIL;100100;2;15
1SNA1359;DETAIL;100100;2;15;1SNA;DETAIL;100100;2;15
1SNA1360;DETAIL;100100;2;15;1SNA;DETAIL;100100;2;15
1SNA1361;DETAIL;100100;2;15;1SNA;DETAIL;100100;2;15
1SNA1362;DETAIL;100100;2;15;1SNA;DETAIL;100100;2;15
1SNA1363;DETAIL;100100;2;15;1SNA;DETAIL;100100;2;15
1SNA1364;DETAIL;100100;2;15;1SNA;DETAIL;100100;2;15
1SNA1365;DETAIL;100100;2;15;1SNA;DETAIL;100100;2;15
1SNA1366;DETAIL;100100;2;15;1SNA;DETAIL;100100;2;15
1SNA1367;DETAIL;100100;2;15;1SNA;DETAIL;100100;2;15
1SNA1368;DETAIL;100100;2;15;1SNA;DETAIL;100100;2;15
1SNA1369;DETAIL;100100;2;15;1SNA;DETAIL;100100;2;15
1SNA1370;DETAIL;100100;2;15;1SNA;DETAIL;100100;2;15
1SNA1371;DETAIL;100100;2;15;1SNA;DETAIL;100100;2;15
1SNA1372;DETAIL;100100;2;15;1SNA;DETAIL;100100;2;15
1SNA1373;DETAIL;100100;2;15;1SNA;DETAIL;100100;2;15
1SNA1374;DETAIL;100100;2;15;1SNA;DETAIL;100100;2;15
1SNA1375;DETAIL;100100;2;15;1SNA;DETAIL;100100;2;15
1SNA1376;DETAIL;100100;2;15;1SNA;DETAIL;100100;2;15
1SNA1377;DETAIL;100100;2;15;1SNA;DETAIL;100100;2;15
1SNA1378;DETAIL;100100;2;15;1SNA;DETAIL;100100;2;15
1SNA1379;DETAIL;100100;2;15;1SNA;DETAIL;100100;2;15
1SNA1380;DETAIL;100100;2;15;1SNA;DETAIL;100100;2;15
1SNA1381;DETAIL;100100;2;15;1SNA;DETAIL;100100;2;15
1SNA1382;DETAIL;100100;2;15;1SNA;DETAIL;100100;2;15
1SNA1383;DETAIL;100100;2;15;1SNA;DETAIL;100100;2;15
1SNA1384;DETAIL;100100;2;15;1SNA;DETAIL;100100;2;15
1SNA1385;DETAIL;100100;2;15;1SNA;DETAIL;100100;2;15
1SNA1386;DETAIL;100100;2;15;1SNA;DETAIL;100100;2;15
1SNA1387;DETAIL;100100;2;15;1SNA;DETAIL;100100;2;15
1SNA1388;DETAIL;100100;2;15;1SNA;DETAIL;100100;2;15
1SNA1389;DETAIL;100100;2;15;1SNA;DETAIL;100100;2;15
1SNA1390;DETAIL;100100;2;15;1SNA;DETAIL;100100;2;15
1SNA1391;DETAIL;100100;2;15;1SNA;DETAIL;100100;2;15
1SNA1392;DETAIL;100100;2;15;1SNA;DETAIL;100100;2;15
1SNA1393;DETAIL;100100;2;15;1SNA;DETAIL;100100;2;15
1SNA1394;DETAIL;100100;2;15;1SNA;DETAIL;100100;2;15
1SNA1395;DETAIL;100100;2;15;1SNA;DETAIL;100100;2;15
1SNA1396;DETAIL;100100;2;15;1SNA;DETAIL;100100;2;15
1SNA1397;DETAIL;100100;2;15;1SNA;DETAIL;100100;2;15
1SNA1398;DETAIL;100100;2;15;1SNA;DETAIL;100100;2;15
1SNA1399;DETAIL;100100;2;15;1SNA;DETAIL;100100;2;15
1SNA1400;DETAIL;100100;2;15;1SNA;DETAIL;100100;2;15
1SNA1401;DETAIL;100100;2;15;1SNA;DETAIL;100100;2;15
1SNA1402;DETAIL;100100;2;15;1SNA;DETAIL;100100;2;15
1SNA1403;DETAIL;100100;2;15;1SNA;DETAIL;100100;2;15
1SNA1404;DETAIL;100100;2;15;1SNA;DETAIL;100100;2;15
1SNA1405;DETAIL;100100;2;15;1SNA;DETAIL;100100;2;15
1SNA1406;DETAIL;100100;2;15;1SNA;DETAIL;100100;2;15
1SNA1407;DETAIL;100100;2;15;1SNA;DETAIL;100100;2;15
1SNA1408;DETAIL;100100;2;15;1SNA;DETAIL;100100;2;15
1SNA1409;DETAIL;100100;2;15;1SNA;DETAIL;100100;2;15
1SNA1410;DETAIL;100100;2;15;1SNA;DETAIL;100100;2;15
1SNA1411;DETAIL;100100;2;15;1SNA;DETAIL;100100;2;15
1SNA1412;DETAIL;100100;2;15;1SNA;DETAIL;100100;2;15
1SNA1413;DETAIL;100100;2;15;1SNA;DETAIL;100100;2;15
1SNA1414;DETAIL;100100;2;15;1SNA;DETAIL;100100;2;15
1SNA1415;DETAIL;100100;2;15;1SNA;DETAIL;100100;2;15
1SNA1416;DETAIL;100100;2;15;1SNA;DETAIL;100100;2;15
1SNA1417;DETAIL;100100;2;15;1SNA;DETAIL;100100;2;15
1SNA1418;DETAIL;100100;2;15;1SNA;DETAIL;100100;2;15
1SNA1419;DETAIL;100100;2;15;1SNA;DETAIL;100100;2;15
1SNA1420;DETAIL;100100;2;15;1SNA;DETAIL;100100;2;15
1SNA1421;DETAIL;100100;2;15;1SNA;DETAIL;100100;2;15
1SNA1422;DETAIL;100100;2;15;1SNA;DETAIL;100100;2;15
1SNA1423;DETAIL;100100;2;15;1SNA;DETAIL;100100;2;15
1SNA1424;DETAIL;100100;2;15;1SNA;DETAIL;100100;2;15
1SNA1425;DETAIL;100100;2;15;1SNA;DETAIL;100100;2;15
1SNA1426;DETAIL;100100;2;15;1SNA;DETAIL;100100;2;15
1SNA1427;DETAIL;100100;2;15;1SNA;DETAIL;100100;2;15
1SNA1428;DETAIL;100100;2;15;1SNA;DETAIL;100100;2;15
1SNA1429;DETAIL;100100;2;15;1SNA;DETAIL;100100;2;15
1SNA1430;DETAIL;100100;2;15;1SNA;DETAIL;100100;2;15
1SNA1431;DETAIL;100100;2;15;1SNA;DETAIL;100100;2;15
1SNA1432;DETAIL;100100;2;15;1SNA;DETAIL;100100;2;15
1SNA1433;DETAIL;100100;2;15;1SNA;DETAIL;100100;2;15
1SNA1434;DETAIL;100100;2;15;1SNA;DETAIL;100100;2;15
1SNA1435;DETAIL;100100;2;15;1SNA;DETAIL;100100;2;15
1SNA1436;DETAIL;100100;2;15;1SNA;DETAIL;100100;2;15
1SNA1437;DETAIL;100100;2;15;1SNA;DETAIL;100100;2;15
1SNA1438;DETAIL;100100;2;15;1SNA;DETAIL;100100;2;15
1SNA1439;DETAIL;100100;2;15;1SNA;DETAIL;100100;2;15
1SNA1440;DETAIL;100100;2;15;1SNA;DETAIL;100100;2;15
1SNA1441;DETAIL;100100;2;15;1SNA;DETAIL;100100;2;15
1SNA1442;DETAIL;100100;2;15;1SNA;DETAIL;100100;2;15
1SNA1443;DETAIL;100100;2;15;1SNA;DETAIL;100100;2;15
1SNA1444;DETAIL;100100;2;15;1SNA;DETAIL;100100;2;15
1SNA1445;DETAIL;100100;2;15;1SNA;DETAIL;100100;2;15
1SNA1446;DETAIL;100100;2;15;1SNA;DETAIL;100100;2;15
1SNA1447;DETAIL;100100;2;15;1SNA;DETAIL;100100;2;15
1SNA1448;DETAIL;100100;2;15;1SNA;DETAIL;100100;2;15
1SNA1449;DETAIL;100100;2;15;1SNA;DETAIL;100100;2;15
1SNA1450;DETAIL;100100;2;15;1SNA;DETAIL;100100;2;15
1SNA1451;DETAIL;100100;2;15;1SNA;DETAIL;100100;2;15
1SNA1452;DETAIL;100100;2;15;1SNA;DETAIL;100100;2;15
1SNA1453;DETAIL;100100;2;15;1SNA;DETAIL;100100;2;15
1SNA1454;DETAIL;100100;2;15;1SNA;DETAIL;100100;2;15
1SNA1455;DETAIL;100100;2;15;1SNA;DETAIL;100100;2;15
1SNA1456;DETAIL;100100;2;15;1SNA;DETAIL;100100;2;15
1SNA1457;DETAIL;100100;2;15;1SNA;DETAIL;100100;2;15
1SNA1458;DETAIL;100100;2;15;1SNA;DETAIL;100100;2;15
1SNA1459;DETAIL;100100;2;15;1SNA;DETAIL;100100;2;15
1SNA1460;DETAIL;100100;2;15;1SNA;DETAIL;100100;2;15
1SNA1461;DETAIL;100100;2;15;1SNA;DETAIL;100100;2;15
1SNA1462;DETAIL;100100;2;15;1SNA;DETAIL;100100;2;15
1SNA1463;DETAIL;100100;2;15;1SNA;DETAIL;100100;2;15
1SNA1464;DETAIL;100100;2;15;1SNA;DETAIL;100100;2;15
1SNA1465;DETAIL;100100;2;15;1SNA;DETAIL;100100;2;15
1SNA1466;DETAIL;100100;2;15;1SNA;DETAIL;100100;2;15
1SNA1467;DETAIL;100100;2;15;1SNA;DETAIL;100100;2;15
1SNA1468;DETAIL;100100;2;15;1SNA;DETAIL;100100;2;15
1SNA1469;DETAIL;100100;2;15;1SNA;DETAIL;100100;2;15
1SNA1470;DETAIL;100100;2;15;1SNA;DETAIL;100100;2;15
1SNA1471;DETAIL;100100;2;15;1SNA;DETAIL;100100;2;15
1SNA1472;DETAIL;100100;2;15;1SNA;DETAIL;100100;2;15
1SNA1473;DETAIL;100100;2;15;1SNA;DETAIL;100100;2;15
1SNA1474;DETAIL;100100;2;15;1SNA;DETAIL;100100;2;15
1SNA1475;DETAIL;100100;2;15;1SNA;DETAIL;100100;2;15
1SNA1476;DETAIL;100100;2;15;1SNA;DETAIL;100100;2;15
1SNA1477;DETAIL;100100;2;15;1SNA;DETAIL;100100;2;15
1SNA1478;DETAIL;100100;2;15;1SNA;DETAIL;100100;2;15
1SNA1479;DETAIL;100100;2;15;1SNA;DETAIL;100100;2;15
1SNA1480;DETAIL;100100;2;15;1SNA;DETAIL;100100;2;15
1SNA1481;DETAIL;100100;2;15;1SNA;DETAIL;100100;2;15
1SNA1482;DETAIL;100100;2;15;1SNA;DETAIL;100100;2;15
1SNA1483;DETAIL;100100;2;15;1SNA;DETAIL;100100;2;15
1SNA1484;DETAIL;100100;2;15;1SNA;DETAIL;100100;2;15
1SNA1485;DETAIL;100100;2;15;1SNA;DETAIL;100100;2;15
1SNA1486;DETAIL;100100;2;15;1SNA;DETAIL;100100;2;15
1SNA1487;DETAIL;100100;2;15;1SNA;DETAIL;100100;2;15
1SNA1488;DETAIL;100100;2;15;1SNA;DETAIL;100100;2;15
1SNA1489;DETAIL;100100;2;15;1SNA;DETAIL;100100;2;15
1SNA1490;DETAIL;100100;2;15;1SNA;DETAIL;100100;2;15
1SNA1491;DETAIL;100100;2;15;1SNA;DETAIL;100100;2;15
1SNA1492;DETAIL;100100;2;15;1SNA;DETAIL;100100;2;15
1SNA1493;DETAIL;100100;2;15;1SNA;DETAIL;100100;2;15
1SNA1494;DETAIL;100100;2;15;1SNA;DETAIL;100100;2;15
1SNA1495;DETAIL;100100;2;15;1SNA;DETAIL;100100;2;15
1SNA1496;DETAIL;100100;2;15;1SNA;DETAIL;100100;2;15
1SNA1497;DETAIL;100100;2;15;1SNA;DETAIL;100100;2;15
1SNA1498;DETAIL;100100;2;15;1SNA;DETAIL;100100;2;15
1SNA1499;DETAIL;100100;2;15;1SNA;DETAIL;100100;2;15
1SNA1500;DETAIL;100100;2;15;1SNA;DETAIL;100100;2;15
1SNA1501;DETAIL;100100;2;15;1SNA;DETAIL;100100;2;15
1SNA1502;DETAIL;100100;2;15;1SNA;DETAIL;100100;2;15
1SNA1503;DETAIL;100100;2;15;1SNA;DETAIL;100100;2;15
1SNA1504;DETAIL;100100;2;15;1SNA;DETAIL;100100;2;15
1SNA1505;DETAIL;100100;2;15;1SNA;DETAIL;100100;2;15
1SNA1506;DETAIL;100100;2;15;1SNA;DETAIL;100100;2;15
1SNA1507;DETAIL;100100;2;15;1SNA;DETAIL;100100;2;15
1SNA1508;DETAIL;100100;2;15;1SNA;DETAIL;100100;2;15
1SNA1509;DETAIL;100100;2;15;1SNA;DETAIL;100100;2;15
1SNA1510;DETAIL;100100;2;15;1SNA;DETAIL;100100;2;15
1SNA1511;DETAIL;100100;2;15;1SNA;DETAIL;100100;2;15
1SNA1512;DETAIL;100100;2;15;1SNA;DETAIL;100100;2;15
1SNA1513;DETAIL;100100;2;15;1SNA;DETAIL;100100;2;15
1SNA1514;DETAIL;100100;2;15;1SNA;DETAIL;100100;2;15
1SNA1515;DETAIL;100100;2;15;1SNA;DETAIL;100100;2;15
1SNA1516;DETAIL;100100;2;15;1SNA;DETAIL;100100;2;15
1SNA1517;DETAIL;100100;2;15;1SNA;DETAIL;100100;2;15
1SNA1518;DETAIL;100100;2;15;1SNA;DETAIL;100100;2;15
1SNA1519;DETAIL;100100;2;15;1SNA;DETAIL;100100;2;15
1SNA1520;DETAIL;100100;2;15;1SNA;DETAIL;100100;2;15
1SNA1521;DETAIL;100100;2;15;1SNA;DETAIL;100100;2;15
1SNA1522;DETAIL;100100;2;15;1SNA;DETAIL;100100;2;15
1SNA1523;DETAIL;100100;2;15;1SNA;DETAIL;100100;2;15
1SNA1524;DETAIL;100100;2;15;1SNA;DETAIL;100100;2;15
1SNA1525;DETAIL;100100;2;15;1SNA;DETAIL;100100;2;15
1SNA1526;DETAIL;100100;2;15;1SNA;DETAIL;100100;2;15
1SNA1527;DETAIL;100100;2;15;1SNA;DETAIL;100100;2;15
1SNA1528;DETAIL;100100;2;15;1SNA;DETAIL;100100;2;15
1SNA1529;DETAIL;100100;2;15;1SNA;DETAIL;100100;2;15
1SNA1530;DETAIL;100100;2;15;1SNA;DETAIL;100100;2;15
1SNA1531;DETAIL;100100;2;15;1SNA;DETAIL;100100;2;15
1SNA1532;DETAIL;100100;2;15;1SNA;DETAIL;100100;2;15
1SNA1533;DETAIL;100100;2;15;1SNA;DETAIL;100100;2;15
1SNA1534;DETAIL;100100;2;15;1SNA;DETAIL;100100;2;15
1SNA1535;DETAIL;100100;2;15;1SNA;DETAIL;100100;2;15
1SNA1536;DETAIL;100100;2;15;1SNA;DETAIL;100100;2;15
1SNA1537;DETAIL;100100;2;15;1SNA;DETAIL;100100;2;15
1SNA1538;DETAIL;100100;2;15;1SNA;DETAIL;100100;2;15
1SNA1539;DETAIL;100100;2;15;1SNA;DETAIL;100100;2;15
1SNA1540;DETAIL;100100;2;15;1SNA;DETAIL;100100;2;15
1SNA1541;DETAIL;100100;2;15;1SNA;DETAIL;100100;2;15
1SNA1542;DETAIL;100100;2;15;1SNA;DETAIL;100100;2;15
1SNA1543;DETAIL;100100;2;15;1SNA;DETAIL;100100;2;15
1SNA1544;DETAIL;100100;2;15;1SNA;DETAIL;100100;2;15
1SNA1545;DETAIL;100100;2;15;1SNA;DETAIL;100100;2;15
1SNA1546;DETAIL;100100;2;15;1SNA;DETAIL;100100;2;15
1SNA1547;DETAIL;100100;2;15;1SNA;DETAIL;100100;2;15
1SNA1548;DETAIL;100100;2;15;1SNA;DETAIL;100100;2;15
1SNA1549;DETAIL;100100;2;15;1SNA;DETAIL;100100;2;15
1SNA1550;DETAIL;100100;2;15;1SNA;DETAIL;100100;2;15
1SNA1551;DETAIL;100100;2;15;1SNA;DETAIL;100100;2;15
1SNA1552;DETAIL;100100;2;15;1SNA;DETAIL;100100;2;15
1SNA1553;DETAIL;100100;2;15;1SNA;DETAIL;100100;2;15
1SNA1554;DETAIL;100100;2;15;1SNA;DETAIL;100100;2;15
1SNA1555;DETAIL;100100;2;15;1SNA;DETAIL;100100;2;15
1SNA1556;DETAIL;100100;2;15;1SNA;DETAIL;100100;2;15
1SNA1557;DETAIL;100100;2;15;1SNA;DETAIL;100100;2;15
1SNA1558;DETAIL;100100;2;15;1SNA;DETAIL;100100;2;15
1SNA1559;DETAIL;100100;2;15;1SNA;DETAIL;100100;2;15
1SNA1560;DETAIL;100100;2;15;1SNA;DETAIL;100100;2;15
1SNA1561;DETAIL;100100;2;15;1SNA;DETAIL;100100;2;15
1SNA1562;DETAIL;100100;2;15;1SNA;DETAIL;100100;2;15
1SNA1563;DETAIL;100100;2;15;1SNA;DETAIL;100100;2;15
1SNA1564;DETAIL;100100;2;15;1SNA;DETAIL;100100;2;15
1SNA1565;DETAIL;100100;2;15;1SNA;DETAIL;100100;2;15
1SNA1566;DETAIL;100100;2;15;1SNA;DETAIL;100100;2;15
1SNA1567;DETAIL;100100;2;15;1SNA;DETAIL;100100;2;15
1SNA1568;DETAIL;100100;2;15;1SNA;DETAIL;100100;2;15
1SNA1569;DETAIL;100100;2;15;1SNA;DETAIL;100100;2;15
1SNA1570;DETAIL;100100;2;15;1SNA;DETAIL;100100;2;15
1SNA1571;DETAIL;100100;2;15;1SNA;DETAIL;100100;2;15
1SNA1572;DETAIL;100100;2;15;1SNA;DETAIL;100100;2;15
1SNA1573;DETAIL;100100;2;15;1SNA;DETAIL;100100;2;15
1SNA1574;DETAIL;100100;2;15;1SNA;DETAIL;100100;2;15
1SNA1575;DETAIL;100100;2;15;1SNA;DETAIL;100100;2;15
1SNA1576;DETAIL;100100;2;15;1SNA;DETAIL;100100;2;15
1SNA1577;DETAIL;100100;2;15;1SNA;DETAIL;100100;2;15
1SNA1578;DETAIL;100100;2;15;1SNA;DETAIL;100100;2;15
1SNA1579;DETAIL;100100;2;15;1SNA;DETAIL;100100;2;15
1SNA1580;DETAIL;100100;2;15;1SNA;DETAIL;100100;2;15
1SNA1581;DETAIL;100100;2;15;1SNA;DETAIL;100100;2;15
1SNA1582;DETAIL;100100;2;15;1SNA;DETAIL;100100;2;15
1SNA1583;DETAIL;100100;2;15;1SNA;DETAIL;100100;2;15
1SNA1584;DETAIL;100100;2;15;1SNA;DETAIL;100100;2;15
1SNA1585;DETAIL;100100;2;15;1SNA;DETAIL;100100;2;15
1SNA1586;DETAIL;100100;2;15;1SNA;DETAIL;100100;2;15
1SNA1587;DETAIL;100100;2;15;1SNA;DETAIL;100100;2;15
1SNA1588;DETAIL;100100;2;15;1SNA;DETAIL;100100;2;15
1SNA1589;DETAIL;100100;2;15;1SNA;DETAIL;100100;2;15
1SNA1590;DETAIL;100100;2;15;1SNA;DETAIL;100100;2;15
1SNA1591;DETAIL;100100;2;15;1SNA;DETAIL;100100;2;15
1SNA1592;DETAIL;100100;2;15;1SNA;DETAIL;100100;2;15
1SNA1593;DETAIL;100100;2;15;1SNA;DETAIL;100100;2;15
1SNA1594;DETAIL;100100;2;15;1SNA;DETAIL;100100;2;15
1SNA1595;DETAIL;100100;2;15;1SNA;DETAIL;100100;2;15
1SNA1596;DETAIL;100100;2;15;1SNA;DETAIL;100100;2;15
1SNA1597;DETAIL;100100;2;15;1SNA;DETAIL;100100;2;15
1SNA1598;DETAIL;100100;2;15;1SNA;DETAIL;100100;2;15
1SNA1599;DETAIL;100100;2;15;1SNA;DETAIL;100100;2;15
1SNA1600;DETAIL;100100;2;15;1SNA;DETAIL;100100;2;15
1SNA1601;DETAIL;100100;2;15;1SNA;DETAIL;100100;2;15
1SNA1602;DETAIL;100100;2;15;1SNA;DETAIL;100100;2;15
1SNA1603;DETAIL;100100;2;15;1SNA;DETAIL;100100;2;15
1SNA1604;DETAIL;100100;2;15;1SNA;DETAIL;100100;2;15
1SNA1605;DETAIL;100100;2;15;1SNA;DETAIL;100100;2;15
1SNA1606;DETAIL;100100;2;15;1SNA;DETAIL;100100;2;15
1SNA1607;DETAIL;100100;2;15;1SNA;DETAIL;100100;2;15
1SNA1608;DETAIL;100100;2;15;1SNA;DETAIL;100100;2;15
1SNA1609;DETAIL;100100;2;15;1SNA;DETAIL;100100;2;15
1SNA1610;DETAIL;100100;2;15;1SNA;DETAIL;100100;2;15
1SNA1611;DETAIL;100100;2;15;1SNA;DETAIL;100100;2;15
1SNA1612;DETAIL;100100;2;15;1SNA;DETAIL;100100;2;15
1SNA1613;DETAIL;100100;2;15;1SNA;DETAIL;100100;2;15
1SNA1614;DETAIL;100100;2;15;1SNA;DETAIL;100100;2;15
1SNA1615;DETAIL;100100;2;15;1SNA;DETAIL;100100;2;15
1SNA1616;DETAIL;100100;2;15;1SNA;DETAIL;100100;2;15
1SNA1617;DETAIL;100100;2;15;1SNA;DETAIL;100100;2;15
1SNA1618;DETAIL;100100;2;15;1SNA;DETAIL;100100;2;15
1SNA1619;DETAIL;100100;2;15;1SNA;DETAIL;100100;2;15
1SNA1620;DETAIL;100100;2;15;1SNA;DETAIL;100100;2;15
1SNA1621;DETAIL;100100;2;15;1SNA;DETAIL;100100;2;15
1SNA1622;DETAIL;100100;2;15;1SNA;DETAIL;100100;2;15
1SNA1623;DETAIL;100100;2;15;1SNA;DETAIL;100100;2;15
1SNA1624;DETAIL;100100;2;15;1SNA;DETAIL;100100;2;15
1SNA1625;DETAIL;100100;2;15;1SNA;DETAIL;100100;2;15
1SNA1626;DETAIL;100100;2;15;1SNA;DETAIL;100100;2;15
1SNA1627;DETAIL;100100;2;15;1SNA;DETAIL;100100;2;15
1SNA1628;DETAIL;100100;2;15;1SNA;DETAIL;100100;2;15
1SNA1629;DETAIL;100100;2;15;1SNA;DETAIL;100100;2;15
1SNA1630;DETAIL;100100;2;15;1SNA;DETAIL;100100;2;15
1SNA1631;DETAIL;100100;2;15;1SNA;DETAIL;100100;2;15
1SNA1632;DETAIL;100100;2;15;1SNA;DETAIL;100100;2;15
1SNA1633;DETAIL;100100;2;15;1SNA;DETAIL;100100;2;15
1SNA1634;DETAIL;100100;2;15;1SNA;DETAIL;100100;2;15
1SNA1635;DETAIL;100100;2;15;1SNA;DETAIL;100100;2;15
1SNA1636;DETAIL;100100;2;15;1SNA;DETAIL;100100;2;15
1SNA1637;DETAIL;100100;2;15;1SNA;DETAIL;100100;2;15
1SNA1638;DETAIL;100100;2;15;1SNA;DETAIL;100100;2;15
1SNA1639;DETAIL;100100;2;15;1SNA;DETAIL;100100;2;15
1SNA1640;DETAIL;100100;2;15;1SNA;DETAIL;100100;2;15
1SNA1641;DETAIL;100100;2;15;1SNA;DETAIL;100100;2;15
1SNA1642;DETAIL;100100;2;15;1SNA;DETAIL;100100;2;15
1SNA1643;DETAIL;100100;2;15;1SNA;DETAIL;100100;2;15
1SNA1644;DETAIL;100100;2;15;1SNA;DETAIL;100100;2;15
1SNA1645;DETAIL;100100;2;15;1SNA;DETAIL;100100;2;15
1SNA1646;DETAIL;100100;2;15;1SNA;DETAIL;100100;2;15
1SNA1647;DETAIL;100100;2;15;1SNA;DETAIL;100100;2;15
1SNA1648;DETAIL;100100;2;15;1SNA;DETAIL;100100;2;15
1SNA1649;DETAIL;100100;2;15;1SNA;DETAIL;100100;2;15
1SNA1650;DETAIL;100100;2;15;1SNA;DETAIL;100100;2;15
1SNA1651;DETAIL;100100;2;15;1SNA;DETAIL;100100;2;15
1SNA1652;DETAIL;100100;2;15;1SNA;DETAIL;100100;2;15
1SNA1653;DETAIL;100100;2;15;1SNA;DETAIL;100100;2;15
1SNA1654;DETAIL;100100;2;15;1SNA;DETAIL;100100;2;15
1SNA1655;DETAIL;100100;2;15;1SNA;DETAIL;100100;2;15
1SNA1656;DETAIL;100100;2;15;1SNA;DETAIL;100100;2;15
1SNA1657;DETAIL;100100;2;15;1SNA;DETAIL;100100;2;15
1SNA1658;DETAIL;100100;2;15;1SNA;DETAIL;100100;2;15
1SNA1659;DETAIL;100100;2;15;1SNA;DETAIL;100100;2;15
1SNA1660;DETAIL;100100;2;15;1SNA;DETAIL;100100;2;15
1SNA1661;DETAIL;100100;2;15;1SNA;DETAIL;100100;2;15
1SNA1662;DETAIL;100100;2;15;1SNA;DETAIL;100100;2;15
1SNA1663;DETAIL;100100;2;15;1SNA;DETAIL;100100;2;15
1SNA1664;DETAIL;100100;2;15;1SNA;DETAIL;100100;2;15
1SNA1665;DETAIL;100100;2;15;1SNA;DETAIL;100100;2;15
1SNA1666;DETAIL;100100;2;15;1SNA;DETAIL;100100;2;15
1SNA1667;DETAIL;100100;2;15;1SNA;DETAIL;100100;2;15
1SNA1668;DETAIL;100100;2;15;1SNA;DETAIL;100100;2;15
1SNA1669;DETAIL;100100;2;15;1SNA;DETAIL;100100;2;15
1SNA1670;DETAIL;100100;2;15;1SNA;DETAIL;100100;2;15
1SNA1671;DETAIL;100100;2;15;1SNA;DETAIL;100100;2;15
1SNA1672;DETAIL;100100;2;15;1SNA;DETAIL;100100;2;15
1SNA1673;DETAIL;100100;2;15;1SNA;DETAIL;100100;2;15
1SNA1674;DETAIL;100100;2;15;1SNA;DETAIL;100100;2;15
1SNA1675;DETAIL;100100;2;15;1SNA;DETAIL;100100;2;15
1SNA1676;DETAIL;100100;2;15;1SNA;DETAIL;100100;2;15
1SNA1677;DETAIL;100100;2;15;1SNA;DETAIL;100100;2;15
1SNA1678;DETAIL;100100;2;15;1SNA;DETAIL;100100;2;15
1SNA1679;DETAIL;100100;2;15;1SNA;DETAIL;100100;2;15
1SNA1680;DETAIL;100100;2;15;1SNA;DETAIL;100100;2;15
1SNA1681;DETAIL;100100;2;15;1SNA;DETAIL;100100;2;15
1SNA1682;DETAIL;100100;2;15;1SNA;DETAIL;100100;2;15
1SNA1683;DETAIL;100100;2;15;1SNA;DETAIL;100100;2;15
1SNA1684;DETAIL;100100;2;15;1SNA;DETAIL;100100;2;15
1SNA1685;DETAIL;100100;2;15;1SNA;DETAIL;100100;2;15
1SNA1686;DETAIL;100100;2;15;1SNA;DETAIL;100100;2;15
1SNA1687;DETAIL;100100;2;15;1SNA;DETAIL;100100;2;15
1SNA1688;DETAIL;100100;2;15;1SNA;DETAIL;100100;2;15
1SNA1689;DETAIL;100100;2;15;1SNA;DETAIL;100100;2;15
1SNA1690;DETAIL;100100;2;15;1SNA;DETAIL;100100;2;15
1SNA1691;DETAIL;100100;2;15;1SNA;DETAIL;100100;2;15
1SNA1692;DETAIL;100100;2;15;1SNA;DETAIL;100100;2;15
1SNA1693;DETAIL;100100;2;15;1SNA;DETAIL;100100;2;15
1SNA1694;DETAIL;100100;2;15;1SNA;DETAIL;100100;2;15
1SNA1695;DETAIL;100100;2;15;1SNA;DETAIL;100100;2;15
1SNA1696;DETAIL;100100;2;15;1SNA;DETAIL;100100;2;15
1SNA1697;DETAIL;100100;2;15;1SNA;DETAIL;100100;2;15
1SNA1698;DETAIL;100100;2;15;1SNA;DETAIL;100100;2;15
1SNA1699;DETAIL;100100;2;15;1SNA;DETAIL;100100;2;15
1SNA1700;DETAIL;100100;2;15;1SNA;DETAIL;100100;2;15
